EESchema Schematic File Version 4
LIBS:GNSSDO-Rb-Signal-Generator-cache
EELAYER 29 0
EELAYER END
$Descr USLegal 14000 8500
encoding utf-8
Sheet 4 8
Title "GNSSDO Rb Signal Generator"
Date "2020-11-23"
Rev "0.2.0"
Comp "TechConficio Inc."
Comment1 ""
Comment2 "License : CC BY 4.0"
Comment3 "Author : Steven Knudsen"
Comment4 "Author : Steven Knudsen"
$EndDescr
Text Notes 4520 3630 0    70   ~ 0
NC
Text Notes 2700 1300 0    70   ~ 0
0.1 uF decoupling capacitors,\n1 per VDDxx
Text Notes 4200 6300 0    70   ~ 0
Place R30 and C31\nvery close to SI5338A\nIN3 pin
Text Notes 3000 4800 0    70   ~ 0
Test Point
Text Notes 6800 2100 0    70   ~ 0
Place close to CLKxx pins
$Comp
L Rb-Multi-Reference-v10-rescue:SPARKFUN-PASSIVES_CAP0603-CAP-Rb-Multi-Reference-v10-Rb-Multi-Reference-v10-rescue C?
U 1 1 5E7FF261
P 2900 1700
F 0 "C?" H 2960 1815 70  0000 L BNN
F 1 "0.1 uF" H 2959 1615 70  0000 L BNN
F 2 "SPARKFUN-PASSIVES_0603-CAP" H 2890 1490 65  0001 L TNN
F 3 "" H 2900 1700 50  0001 C CNN
	1    2900 1700
	1    0    0    -1  
$EndComp
$Comp
L Rb-Multi-Reference-v10-rescue:SPARKFUN-PASSIVES_CAP0603-CAP-Rb-Multi-Reference-v10-Rb-Multi-Reference-v10-rescue C?
U 1 1 5E7FF329
P 3200 1700
F 0 "C?" H 3260 1815 70  0000 L BNN
F 1 "0.1 uF" H 3259 1615 70  0000 L BNN
F 2 "SPARKFUN-PASSIVES_0603-CAP" H 3190 1490 65  0001 L TNN
F 3 "" H 3200 1700 50  0001 C CNN
	1    3200 1700
	1    0    0    -1  
$EndComp
$Comp
L Rb-Multi-Reference-v10-rescue:SPARKFUN-PASSIVES_CAP0603-CAP-Rb-Multi-Reference-v10-Rb-Multi-Reference-v10-rescue C?
U 1 1 5E7FF38E
P 3500 1700
F 0 "C?" H 3560 1815 70  0000 L BNN
F 1 "0.1 uF" H 3559 1615 70  0000 L BNN
F 2 "SPARKFUN-PASSIVES_0603-CAP" H 3490 1490 65  0001 L TNN
F 3 "" H 3500 1700 50  0001 C CNN
	1    3500 1700
	1    0    0    -1  
$EndComp
$Comp
L Rb-Multi-Reference-v10-rescue:SPARKFUN-PASSIVES_CAP0603-CAP-Rb-Multi-Reference-v10-Rb-Multi-Reference-v10-rescue C?
U 1 1 5E7FF456
P 3800 1700
F 0 "C?" H 3860 1815 70  0000 L BNN
F 1 "0.1 uF" H 3859 1615 70  0000 L BNN
F 2 "SPARKFUN-PASSIVES_0603-CAP" H 3790 1490 65  0001 L TNN
F 3 "" H 3800 1700 50  0001 C CNN
	1    3800 1700
	1    0    0    -1  
$EndComp
$Comp
L Rb-Multi-Reference-v10-rescue:SPARKFUN-PASSIVES_CAP0603-CAP-Rb-Multi-Reference-v10-Rb-Multi-Reference-v10-rescue C?
U 1 1 5E7FF51E
P 4100 1700
F 0 "C?" H 4160 1815 70  0000 L BNN
F 1 "0.1 uF" H 4159 1615 70  0000 L BNN
F 2 "SPARKFUN-PASSIVES_0603-CAP" H 4090 1490 65  0001 L TNN
F 3 "" H 4100 1700 50  0001 C CNN
	1    4100 1700
	1    0    0    -1  
$EndComp
$Comp
L Rb-Multi-Reference-v10-rescue:SPARKFUN-PASSIVES_CAP0603-CAP-Rb-Multi-Reference-v10-Rb-Multi-Reference-v10-rescue C?
U 1 1 5E7FF5E6
P 4400 1700
F 0 "C?" H 4460 1815 70  0000 L BNN
F 1 "0.1 uF" H 4459 1615 70  0000 L BNN
F 2 "SPARKFUN-PASSIVES_0603-CAP" H 4390 1490 65  0001 L TNN
F 3 "" H 4400 1700 50  0001 C CNN
	1    4400 1700
	1    0    0    -1  
$EndComp
$Comp
L Rb-Multi-Reference-v10-rescue:SPARKFUN-PASSIVES_CAP0603-CAP-Rb-Multi-Reference-v10-Rb-Multi-Reference-v10-rescue C?
U 1 1 5E7FF6AE
P 3900 6400
F 0 "C?" H 3959 6515 70  0000 L BNN
F 1 "0.1 uF" H 3960 6315 70  0000 L BNN
F 2 "SPARKFUN-PASSIVES_0603-CAP" H 3890 6190 65  0001 L TNN
F 3 "" H 3900 6400 50  0001 C CNN
	1    3900 6400
	-1   0    0    1   
$EndComp
$Comp
L Rb-Multi-Reference-v10-rescue:SPARKFUN-PASSIVES_CAP0603-CAP-Rb-Multi-Reference-v10-Rb-Multi-Reference-v10-rescue C?
U 1 1 5E7FF776
P 2500 6400
F 0 "C?" H 2559 6515 70  0000 L BNN
F 1 "0.1 uF" H 2560 6315 70  0000 L BNN
F 2 "SPARKFUN-PASSIVES_0603-CAP" H 2490 6190 65  0001 L TNN
F 3 "" H 2500 6400 50  0001 C CNN
	1    2500 6400
	-1   0    0    1   
$EndComp
$Comp
L Rb-Multi-Reference-v10-rescue:FRAMES_LETTER_L-Rb-Multi-Reference-v10-Rb-Multi-Reference-v10-rescue #FRAME?
U 1 1 5E7FF7DA
P 1800 7900
F 0 "#FRAME?" H 1800 7900 50  0001 C CNN
F 1 "~" H 1800 7900 50  0001 C CNN
F 2 "" H 1800 7900 50  0001 C CNN
F 3 "" H 1800 7900 50  0001 C CNN
	1    1800 7900
	1    0    0    -1  
$EndComp
$Comp
L Rb-Multi-Reference-v10-rescue:SPARKFUN-CONNECTORS_M01PTH-Rb-Multi-Reference-v10-Rb-Multi-Reference-v10-rescue JP?
U 1 1 5E7FFE1A
P 3200 5000
F 0 "JP?" H 3100 5130 70  0000 L BNN
F 1 "M01PTH" H 3101 4800 70  0000 L BNN
F 2 "SPARKFUN-CONNECTORS_1X01" H 3190 4790 65  0001 L TNN
F 3 "" H 3200 5000 50  0001 C CNN
	1    3200 5000
	0    1    1    0   
$EndComp
$Comp
L Rb-Multi-Reference-v10-rescue:SPARKFUN-PASSIVES_RESISTOR0603-RES-Rb-Multi-Reference-v10-Rb-Multi-Reference-v10-rescue R?
U 1 1 5E7FFF46
P 3900 5900
F 0 "R?" H 3750 5959 70  0000 L BNN
F 1 "49.9" H 3750 5770 70  0000 L BNN
F 2 "SPARKFUN-PASSIVES_0603-RES" H 3890 5690 65  0001 L TNN
F 3 "" H 3900 5900 50  0001 C CNN
	1    3900 5900
	0    -1   -1   0   
$EndComp
$Comp
L Rb-Multi-Reference-v10-rescue:SPARKFUN-PASSIVES_RESISTOR0603-RES-Rb-Multi-Reference-v10-Rb-Multi-Reference-v10-rescue R?
U 1 1 5E80000E
P 3200 5900
F 0 "R?" H 3050 5959 70  0000 L BNN
F 1 "2k" H 3050 5770 70  0000 L BNN
F 2 "SPARKFUN-PASSIVES_0603-RES" H 3190 5690 65  0001 L TNN
F 3 "" H 3200 5900 50  0001 C CNN
	1    3200 5900
	0    -1   -1   0   
$EndComp
$Comp
L Rb-Multi-Reference-v10-rescue:SPARKFUN-PASSIVES_RESISTOR0603-RES-Rb-Multi-Reference-v10-Rb-Multi-Reference-v10-rescue R?
U 1 1 5E8000D6
P 3200 6500
F 0 "R?" H 3050 6559 70  0000 L BNN
F 1 "2k" H 3050 6370 70  0000 L BNN
F 2 "SPARKFUN-PASSIVES_0603-RES" H 3190 6290 65  0001 L TNN
F 3 "" H 3200 6500 50  0001 C CNN
	1    3200 6500
	0    -1   -1   0   
$EndComp
$Comp
L Rb-Multi-Reference-v10-rescue:SPARKFUN-PASSIVES_RESISTOR0603-RES-Rb-Multi-Reference-v10-Rb-Multi-Reference-v10-rescue R?
U 1 1 5E80019E
P 7300 2400
F 0 "R?" H 7150 2459 70  0000 L BNN
F 1 "100" H 7150 2270 70  0000 L BNN
F 2 "SPARKFUN-PASSIVES_0603-RES" H 7290 2190 65  0001 L TNN
F 3 "" H 7300 2400 50  0001 C CNN
	1    7300 2400
	1    0    0    -1  
$EndComp
$Comp
L Rb-Multi-Reference-v10-rescue:SPARKFUN-PASSIVES_RESISTOR0603-RES-Rb-Multi-Reference-v10-Rb-Multi-Reference-v10-rescue R?
U 1 1 5E800266
P 7300 3300
F 0 "R?" H 7150 3359 70  0000 L BNN
F 1 "100" H 7150 3170 70  0000 L BNN
F 2 "SPARKFUN-PASSIVES_0603-RES" H 7290 3090 65  0001 L TNN
F 3 "" H 7300 3300 50  0001 C CNN
	1    7300 3300
	1    0    0    -1  
$EndComp
$Comp
L Rb-Multi-Reference-v10-rescue:SPARKFUN-PASSIVES_RESISTOR0603-RES-Rb-Multi-Reference-v10-Rb-Multi-Reference-v10-rescue R?
U 1 1 5E80032E
P 7300 4100
F 0 "R?" H 7150 4159 70  0000 L BNN
F 1 "100" H 7150 3970 70  0000 L BNN
F 2 "SPARKFUN-PASSIVES_0603-RES" H 7290 3890 65  0001 L TNN
F 3 "" H 7300 4100 50  0001 C CNN
	1    7300 4100
	1    0    0    -1  
$EndComp
$Comp
L Rb-Multi-Reference-v10-rescue:SPARKFUN-PASSIVES_RESISTOR0603-RES-Rb-Multi-Reference-v10-Rb-Multi-Reference-v10-rescue R?
U 1 1 5E8003F6
P 7300 4800
F 0 "R?" H 7150 4859 70  0000 L BNN
F 1 "100" H 7150 4670 70  0000 L BNN
F 2 "SPARKFUN-PASSIVES_0603-RES" H 7290 4590 65  0001 L TNN
F 3 "" H 7300 4800 50  0001 C CNN
	1    7300 4800
	1    0    0    -1  
$EndComp
$Comp
L Rb-Multi-Reference-v10-rescue:SPARKFUN-PASSIVES_RESISTOR0603-RES-Rb-Multi-Reference-v10-Rb-Multi-Reference-v10-rescue R?
U 1 1 5E8004BE
P 8300 5800
F 0 "R?" H 8150 5859 70  0000 L BNN
F 1 "49.9" H 8150 5670 70  0000 L BNN
F 2 "SPARKFUN-PASSIVES_0603-RES" H 8290 5590 65  0001 L TNN
F 3 "" H 8300 5800 50  0001 C CNN
	1    8300 5800
	0    -1   -1   0   
$EndComp
$Comp
L Rb-Multi-Reference-v10-rescue:SPARKFUN-PASSIVES_RESISTOR0603-RES-Rb-Multi-Reference-v10-Rb-Multi-Reference-v10-rescue R?
U 1 1 5E800586
P 8600 5800
F 0 "R?" H 8450 5859 70  0000 L BNN
F 1 "49.9" H 8450 5670 70  0000 L BNN
F 2 "SPARKFUN-PASSIVES_0603-RES" H 8590 5590 65  0001 L TNN
F 3 "" H 8600 5800 50  0001 C CNN
	1    8600 5800
	0    -1   -1   0   
$EndComp
$Comp
L Rb-Multi-Reference-v10-rescue:SPARKFUN-PASSIVES_RESISTOR0603-RES-Rb-Multi-Reference-v10-Rb-Multi-Reference-v10-rescue R?
U 1 1 5E80064E
P 8900 5800
F 0 "R?" H 8750 5859 70  0000 L BNN
F 1 "49.9" H 8750 5670 70  0000 L BNN
F 2 "SPARKFUN-PASSIVES_0603-RES" H 8890 5590 65  0001 L TNN
F 3 "" H 8900 5800 50  0001 C CNN
	1    8900 5800
	0    -1   -1   0   
$EndComp
$Comp
L Rb-Multi-Reference-v10-rescue:SPARKFUN-PASSIVES_RESISTOR0603-RES-Rb-Multi-Reference-v10-Rb-Multi-Reference-v10-rescue R?
U 1 1 5E800716
P 9200 5800
F 0 "R?" H 9050 5859 70  0000 L BNN
F 1 "49.9" H 9050 5670 70  0000 L BNN
F 2 "SPARKFUN-PASSIVES_0603-RES" H 9190 5590 65  0001 L TNN
F 3 "" H 9200 5800 50  0001 C CNN
	1    9200 5800
	0    -1   -1   0   
$EndComp
$Comp
L Rb-Multi-Reference-v10-rescue:SPARKFUN-PASSIVES_RESISTOR0603-RES-Rb-Multi-Reference-v10-Rb-Multi-Reference-v10-rescue R?
U 1 1 5E8007DE
P 9500 5800
F 0 "R?" H 9350 5859 70  0000 L BNN
F 1 "49.9" H 9350 5670 70  0000 L BNN
F 2 "SPARKFUN-PASSIVES_0603-RES" H 9490 5590 65  0001 L TNN
F 3 "" H 9500 5800 50  0001 C CNN
	1    9500 5800
	0    -1   -1   0   
$EndComp
$Comp
L Rb-Multi-Reference-v10-rescue:SPARKFUN-PASSIVES_RESISTOR0603-RES-Rb-Multi-Reference-v10-Rb-Multi-Reference-v10-rescue R?
U 1 1 5E8008A6
P 9800 5800
F 0 "R?" H 9650 5859 70  0000 L BNN
F 1 "49.9" H 9650 5670 70  0000 L BNN
F 2 "SPARKFUN-PASSIVES_0603-RES" H 9790 5590 65  0001 L TNN
F 3 "" H 9800 5800 50  0001 C CNN
	1    9800 5800
	0    -1   -1   0   
$EndComp
$Comp
L Rb-Multi-Reference-v10-rescue:SPARKFUN-PASSIVES_RESISTOR0603-RES-Rb-Multi-Reference-v10-Rb-Multi-Reference-v10-rescue R?
U 1 1 5E800A36
P 10400 5800
F 0 "R?" H 10250 5859 70  0000 L BNN
F 1 "49.9" H 10250 5670 70  0000 L BNN
F 2 "SPARKFUN-PASSIVES_0603-RES" H 10390 5590 65  0001 L TNN
F 3 "" H 10400 5800 50  0001 C CNN
	1    10400 5800
	0    -1   -1   0   
$EndComp
$Comp
L Rb-Multi-Reference-v10-rescue:SPARKFUN-PASSIVES_RESISTOR0603-RES-Rb-Multi-Reference-v10-Rb-Multi-Reference-v10-rescue R?
U 1 1 5E800AFE
P 7900 2600
F 0 "R?" H 7750 2659 70  0000 L BNN
F 1 "0" H 7750 2470 70  0000 L BNN
F 2 "SPARKFUN-PASSIVES_0603-RES" H 7890 2390 65  0001 L TNN
F 3 "" H 7900 2600 50  0001 C CNN
	1    7900 2600
	1    0    0    -1  
$EndComp
$Comp
L Rb-Multi-Reference-v10-rescue:SPARKFUN-PASSIVES_RESISTOR0603-RES-Rb-Multi-Reference-v10-Rb-Multi-Reference-v10-rescue R?
U 1 1 5E800BC6
P 7900 3000
F 0 "R?" H 7750 3059 70  0000 L BNN
F 1 "0" H 7750 2870 70  0000 L BNN
F 2 "SPARKFUN-PASSIVES_0603-RES" H 7890 2790 65  0001 L TNN
F 3 "" H 7900 3000 50  0001 C CNN
	1    7900 3000
	1    0    0    -1  
$EndComp
$Comp
L Rb-Multi-Reference-v10-rescue:SPARKFUN-PASSIVES_RESISTOR0603-RES-Rb-Multi-Reference-v10-Rb-Multi-Reference-v10-rescue R?
U 1 1 5E800C8E
P 7900 3500
F 0 "R?" H 7750 3559 70  0000 L BNN
F 1 "0" H 7750 3370 70  0000 L BNN
F 2 "SPARKFUN-PASSIVES_0603-RES" H 7890 3290 65  0001 L TNN
F 3 "" H 7900 3500 50  0001 C CNN
	1    7900 3500
	1    0    0    -1  
$EndComp
$Comp
L Rb-Multi-Reference-v10-rescue:SPARKFUN-PASSIVES_RESISTOR0603-RES-Rb-Multi-Reference-v10-Rb-Multi-Reference-v10-rescue R?
U 1 1 5E800D56
P 7900 3800
F 0 "R?" H 7750 3859 70  0000 L BNN
F 1 "0" H 7750 3670 70  0000 L BNN
F 2 "SPARKFUN-PASSIVES_0603-RES" H 7890 3590 65  0001 L TNN
F 3 "" H 7900 3800 50  0001 C CNN
	1    7900 3800
	1    0    0    -1  
$EndComp
$Comp
L Rb-Multi-Reference-v10-rescue:SPARKFUN-PASSIVES_RESISTOR0603-RES-Rb-Multi-Reference-v10-Rb-Multi-Reference-v10-rescue R?
U 1 1 5E800E1E
P 7900 4300
F 0 "R?" H 7750 4359 70  0000 L BNN
F 1 "0" H 7750 4170 70  0000 L BNN
F 2 "SPARKFUN-PASSIVES_0603-RES" H 7890 4090 65  0001 L TNN
F 3 "" H 7900 4300 50  0001 C CNN
	1    7900 4300
	1    0    0    -1  
$EndComp
$Comp
L Rb-Multi-Reference-v10-rescue:SPARKFUN-PASSIVES_RESISTOR0603-RES-Rb-Multi-Reference-v10-Rb-Multi-Reference-v10-rescue R?
U 1 1 5E800EE6
P 7900 4600
F 0 "R?" H 7750 4659 70  0000 L BNN
F 1 "0" H 7750 4470 70  0000 L BNN
F 2 "SPARKFUN-PASSIVES_0603-RES" H 7890 4390 65  0001 L TNN
F 3 "" H 7900 4600 50  0001 C CNN
	1    7900 4600
	1    0    0    -1  
$EndComp
$Comp
L Rb-Multi-Reference-v10-rescue:SPARKFUN-PASSIVES_RESISTOR0603-RES-Rb-Multi-Reference-v10-Rb-Multi-Reference-v10-rescue R?
U 1 1 5E800FAE
P 7900 5000
F 0 "R?" H 7750 5059 70  0000 L BNN
F 1 "0" H 7750 4870 70  0000 L BNN
F 2 "SPARKFUN-PASSIVES_0603-RES" H 7890 4790 65  0001 L TNN
F 3 "" H 7900 5000 50  0001 C CNN
	1    7900 5000
	1    0    0    -1  
$EndComp
$Comp
L Rb-Multi-Reference-v10-rescue:SPARKFUN-PASSIVES_RESISTOR0603-RES-Rb-Multi-Reference-v10-Rb-Multi-Reference-v10-rescue R?
U 1 1 5E801076
P 7900 5300
F 0 "R?" H 7750 5359 70  0000 L BNN
F 1 "0" H 7750 5170 70  0000 L BNN
F 2 "SPARKFUN-PASSIVES_0603-RES" H 7890 5090 65  0001 L TNN
F 3 "" H 7900 5300 50  0001 C CNN
	1    7900 5300
	1    0    0    -1  
$EndComp
Wire Wire Line
	4400 1400 4400 1500
Wire Wire Line
	4400 1200 4400 1400
Wire Wire Line
	4100 1400 4100 1500
Wire Wire Line
	4100 1400 4400 1400
Wire Wire Line
	3800 1400 3800 1500
Wire Wire Line
	3800 1400 4100 1400
Wire Wire Line
	3500 1400 3500 1500
Wire Wire Line
	3500 1400 3800 1400
Wire Wire Line
	3200 1400 3200 1500
Wire Wire Line
	3200 1400 3500 1400
Wire Wire Line
	2900 1400 3200 1400
Wire Wire Line
	2900 1400 2900 1500
Wire Wire Line
	5800 3300 5800 1400
Wire Wire Line
	5400 3300 5400 1400
Wire Wire Line
	5400 1400 5500 1400
Wire Wire Line
	5500 1400 5600 1400
Wire Wire Line
	5600 1400 5700 1400
Wire Wire Line
	5700 1400 5800 1400
Wire Wire Line
	5700 3300 5700 1400
Wire Wire Line
	5600 3300 5600 1400
Wire Wire Line
	5500 3300 5500 1400
Wire Wire Line
	5300 3300 5300 1400
Wire Wire Line
	5300 1400 5400 1400
Wire Wire Line
	5300 1400 4400 1400
Connection ~ 4400 1400
Connection ~ 4100 1400
Connection ~ 3800 1400
Connection ~ 3500 1400
Connection ~ 3200 1400
Connection ~ 5700 1400
Connection ~ 5600 1400
Connection ~ 5500 1400
Connection ~ 5400 1400
Connection ~ 5300 1400
Wire Wire Line
	8100 2600 10400 2600
Wire Wire Line
	10400 2600 11300 2600
Wire Wire Line
	10400 5600 10400 2600
Connection ~ 10400 2600
Text Label 11000 2600 0    65   ~ 0
CLK0A
Wire Wire Line
	8100 3000 10100 3000
Wire Wire Line
	10100 3000 11300 3000
Wire Wire Line
	10100 5600 10100 3000
Connection ~ 10100 3000
Text Label 11000 3000 0    65   ~ 0
CLK0B
Wire Wire Line
	8100 3500 9800 3500
Wire Wire Line
	9800 3500 11300 3500
Wire Wire Line
	9800 5600 9800 3500
Connection ~ 9800 3500
Text Label 11000 3500 0    65   ~ 0
CLK1A
Wire Wire Line
	8100 3800 9500 3800
Wire Wire Line
	9500 3800 11300 3800
Wire Wire Line
	9500 5600 9500 3800
Connection ~ 9500 3800
Text Label 11000 3800 0    65   ~ 0
CLK1B
Wire Wire Line
	8100 4300 9200 4300
Wire Wire Line
	9200 4300 11300 4300
Wire Wire Line
	9200 5600 9200 4300
Connection ~ 9200 4300
Text Label 11000 4300 0    65   ~ 0
CLK2A
Wire Wire Line
	8100 4600 8900 4600
Wire Wire Line
	8900 4600 11300 4600
Wire Wire Line
	8900 5600 8900 4600
Connection ~ 8900 4600
Text Label 11000 4600 0    65   ~ 0
CLK2B
Wire Wire Line
	8100 5000 8600 5000
Wire Wire Line
	8600 5000 11300 5000
Wire Wire Line
	8600 5600 8600 5000
Connection ~ 8600 5000
Text Label 11000 5000 0    65   ~ 0
CLK3A
Wire Wire Line
	8100 5300 8300 5300
Wire Wire Line
	8300 5300 11300 5300
Wire Wire Line
	8300 5600 8300 5300
Connection ~ 8300 5300
Text Label 11000 5300 0    65   ~ 0
CLK3B
Wire Wire Line
	4400 2000 4400 1900
Wire Wire Line
	4400 1900 4400 1800
Wire Wire Line
	4100 1800 4100 1900
Wire Wire Line
	4100 1900 4400 1900
Wire Wire Line
	3800 1800 3800 1900
Wire Wire Line
	3800 1900 4100 1900
Wire Wire Line
	3500 1800 3500 1900
Wire Wire Line
	3500 1900 3800 1900
Wire Wire Line
	3200 1800 3200 1900
Wire Wire Line
	3200 1900 3500 1900
Wire Wire Line
	2900 1800 2900 1900
Wire Wire Line
	2900 1900 3200 1900
Connection ~ 4400 1900
Connection ~ 4100 1900
Connection ~ 3800 1900
Connection ~ 3500 1900
Connection ~ 3200 1900
Wire Wire Line
	3900 6600 3900 6800
Wire Wire Line
	3200 6800 3200 6700
Wire Wire Line
	2500 6800 2500 6600
Wire Wire Line
	8300 6100 8300 6000
Wire Wire Line
	8600 6100 8600 6000
Wire Wire Line
	8900 6100 8900 6000
Wire Wire Line
	9200 6100 9200 6000
Wire Wire Line
	9500 6100 9500 6000
Wire Wire Line
	9800 6100 9800 6000
Wire Wire Line
	6500 4300 6600 4300
Wire Wire Line
	6600 4300 6600 5300
Wire Wire Line
	6600 5300 7600 5300
Wire Wire Line
	7600 5300 7700 5300
Wire Wire Line
	7500 4800 7600 4800
Wire Wire Line
	7600 4800 7600 5300
Connection ~ 7600 5300
Wire Wire Line
	3900 6100 3900 6200
Wire Wire Line
	3900 6200 3900 6300
Wire Wire Line
	3200 6300 3200 6200
Wire Wire Line
	3200 6200 3200 6100
Wire Wire Line
	3900 6200 3200 6200
Connection ~ 3900 6200
Connection ~ 3200 6200
Wire Wire Line
	6500 4200 6700 4200
Wire Wire Line
	6700 4200 6700 5000
Wire Wire Line
	6700 5000 7000 5000
Wire Wire Line
	7000 5000 7700 5000
Wire Wire Line
	7100 4800 7000 4800
Wire Wire Line
	7000 4800 7000 5000
Connection ~ 7000 5000
Wire Wire Line
	3200 5700 3200 5600
Wire Wire Line
	3200 5600 2500 5600
Wire Wire Line
	2500 5600 2500 6300
Wire Wire Line
	6500 4100 6800 4100
Wire Wire Line
	6800 4100 6800 4600
Wire Wire Line
	6800 4600 7600 4600
Wire Wire Line
	7600 4600 7700 4600
Wire Wire Line
	7600 4100 7600 4600
Connection ~ 7600 4600
Wire Wire Line
	6500 4000 6900 4000
Wire Wire Line
	6900 4000 6900 4300
Wire Wire Line
	6900 4300 7000 4300
Wire Wire Line
	7000 4100 7000 4300
Wire Wire Line
	6500 3900 6900 3900
Wire Wire Line
	6900 3900 6900 3800
Wire Wire Line
	6900 3800 7600 3800
Wire Wire Line
	7600 3800 7700 3800
Wire Wire Line
	7600 3300 7600 3800
Connection ~ 7600 3800
Wire Wire Line
	6500 3800 6800 3800
Wire Wire Line
	6800 3800 6800 3500
Wire Wire Line
	6800 3500 7000 3500
Wire Wire Line
	7000 3500 7700 3500
Wire Wire Line
	7000 3300 7000 3500
Connection ~ 7000 3500
Wire Wire Line
	6500 3700 6700 3700
Wire Wire Line
	6700 3700 6700 3000
Wire Wire Line
	6700 3000 7600 3000
Wire Wire Line
	7600 3000 7700 3000
Wire Wire Line
	7600 2400 7600 3000
Connection ~ 7600 3000
Wire Wire Line
	7700 2600 7000 2600
Wire Wire Line
	7000 2600 6600 2600
Wire Wire Line
	6600 2600 6600 3600
Wire Wire Line
	7100 2400 7000 2400
Wire Wire Line
	7000 2400 7000 2600
Connection ~ 7000 2600
Wire Wire Line
	4700 3700 4300 3700
Wire Wire Line
	4300 3700 4300 3200
Wire Wire Line
	4300 3200 4100 3200
Wire Wire Line
	4100 3200 4100 3350
Text Label 4050 3200 0    65   ~ 0
SGND
Wire Wire Line
	4700 3800 3900 3800
Wire Wire Line
	3900 5700 3900 3800
Wire Wire Line
	3900 3800 2400 3800
Connection ~ 3900 3800
Text Label 2410 3760 0    65   ~ 0
SI5338A_IN3
Wire Wire Line
	4700 4300 4400 4300
Text Label 4400 4300 0    65   ~ 0
SSCL
Wire Wire Line
	4700 4400 4400 4400
Text Label 4400 4400 0    65   ~ 0
SSDA
$Comp
L power:+3.3V #PWR?
U 1 1 5FBBF4E6
P 4400 1200
F 0 "#PWR?" H 4400 1050 50  0001 C CNN
F 1 "+3.3V" H 4415 1373 50  0000 C CNN
F 2 "" H 4400 1200 50  0001 C CNN
F 3 "" H 4400 1200 50  0001 C CNN
	1    4400 1200
	1    0    0    -1  
$EndComp
$Comp
L power:GND #PWR?
U 1 1 5FBC0E5F
P 4400 2000
F 0 "#PWR?" H 4400 1750 50  0001 C CNN
F 1 "GND" H 4405 1827 50  0000 C CNN
F 2 "" H 4400 2000 50  0001 C CNN
F 3 "" H 4400 2000 50  0001 C CNN
	1    4400 2000
	1    0    0    -1  
$EndComp
$Comp
L power:GND #PWR?
U 1 1 5FBC1449
P 4100 3350
F 0 "#PWR?" H 4100 3100 50  0001 C CNN
F 1 "GND" H 4105 3177 50  0000 C CNN
F 2 "" H 4100 3350 50  0001 C CNN
F 3 "" H 4100 3350 50  0001 C CNN
	1    4100 3350
	1    0    0    -1  
$EndComp
$Comp
L Rb-Multi-Reference-v10-rescue:SILABS-1_SI5338A-Rb-Multi-Reference-v10-Rb-Multi-Reference-v10-rescue U?
U 1 1 5E80113E
P 5600 4000
F 0 "U?" H 4900 4550 70  0000 L BNN
F 1 "SI5338A" H 4900 3390 70  0000 L BNN
F 2 "SILABS-1_QFN-24_ALT2" H 5590 3790 65  0001 L TNN
F 3 "" H 5600 4000 50  0001 C CNN
	1    5600 4000
	1    0    0    -1  
$EndComp
Connection ~ 3200 5600
Wire Wire Line
	3200 5300 3200 5600
$Comp
L power:GND #PWR?
U 1 1 5FBD29D6
P 3900 6800
F 0 "#PWR?" H 3900 6550 50  0001 C CNN
F 1 "GND" H 3905 6627 50  0000 C CNN
F 2 "" H 3900 6800 50  0001 C CNN
F 3 "" H 3900 6800 50  0001 C CNN
	1    3900 6800
	1    0    0    -1  
$EndComp
$Comp
L power:GND #PWR?
U 1 1 5FBD2E71
P 3200 6800
F 0 "#PWR?" H 3200 6550 50  0001 C CNN
F 1 "GND" H 3205 6627 50  0000 C CNN
F 2 "" H 3200 6800 50  0001 C CNN
F 3 "" H 3200 6800 50  0001 C CNN
	1    3200 6800
	1    0    0    -1  
$EndComp
$Comp
L power:GND #PWR?
U 1 1 5FBD31FC
P 2500 6800
F 0 "#PWR?" H 2500 6550 50  0001 C CNN
F 1 "GND" H 2505 6627 50  0000 C CNN
F 2 "" H 2500 6800 50  0001 C CNN
F 3 "" H 2500 6800 50  0001 C CNN
	1    2500 6800
	1    0    0    -1  
$EndComp
Wire Wire Line
	6600 3600 6500 3600
Wire Wire Line
	7100 4100 7000 4100
Wire Wire Line
	7500 4100 7600 4100
Connection ~ 7000 4300
Wire Wire Line
	7000 4300 7700 4300
Wire Wire Line
	7500 3300 7600 3300
Wire Wire Line
	7100 3300 7000 3300
Wire Wire Line
	7500 2400 7600 2400
$Comp
L power:GND #PWR?
U 1 1 5FBD675D
P 8300 6100
F 0 "#PWR?" H 8300 5850 50  0001 C CNN
F 1 "GND" H 8305 5927 50  0000 C CNN
F 2 "" H 8300 6100 50  0001 C CNN
F 3 "" H 8300 6100 50  0001 C CNN
	1    8300 6100
	1    0    0    -1  
$EndComp
$Comp
L power:GND #PWR?
U 1 1 5FBD6E8A
P 8600 6100
F 0 "#PWR?" H 8600 5850 50  0001 C CNN
F 1 "GND" H 8605 5927 50  0000 C CNN
F 2 "" H 8600 6100 50  0001 C CNN
F 3 "" H 8600 6100 50  0001 C CNN
	1    8600 6100
	1    0    0    -1  
$EndComp
$Comp
L power:GND #PWR?
U 1 1 5FBD72BF
P 8900 6100
F 0 "#PWR?" H 8900 5850 50  0001 C CNN
F 1 "GND" H 8905 5927 50  0000 C CNN
F 2 "" H 8900 6100 50  0001 C CNN
F 3 "" H 8900 6100 50  0001 C CNN
	1    8900 6100
	1    0    0    -1  
$EndComp
$Comp
L power:GND #PWR?
U 1 1 5FBD75B1
P 9200 6100
F 0 "#PWR?" H 9200 5850 50  0001 C CNN
F 1 "GND" H 9205 5927 50  0000 C CNN
F 2 "" H 9200 6100 50  0001 C CNN
F 3 "" H 9200 6100 50  0001 C CNN
	1    9200 6100
	1    0    0    -1  
$EndComp
$Comp
L power:GND #PWR?
U 1 1 5FBD78A3
P 9500 6100
F 0 "#PWR?" H 9500 5850 50  0001 C CNN
F 1 "GND" H 9505 5927 50  0000 C CNN
F 2 "" H 9500 6100 50  0001 C CNN
F 3 "" H 9500 6100 50  0001 C CNN
	1    9500 6100
	1    0    0    -1  
$EndComp
$Comp
L power:GND #PWR?
U 1 1 5FBD7C1D
P 9800 6100
F 0 "#PWR?" H 9800 5850 50  0001 C CNN
F 1 "GND" H 9805 5927 50  0000 C CNN
F 2 "" H 9800 6100 50  0001 C CNN
F 3 "" H 9800 6100 50  0001 C CNN
	1    9800 6100
	1    0    0    -1  
$EndComp
$Comp
L power:GND #PWR?
U 1 1 5FBD7FCA
P 10100 6100
F 0 "#PWR?" H 10100 5850 50  0001 C CNN
F 1 "GND" H 10105 5927 50  0000 C CNN
F 2 "" H 10100 6100 50  0001 C CNN
F 3 "" H 10100 6100 50  0001 C CNN
	1    10100 6100
	1    0    0    -1  
$EndComp
$Comp
L power:GND #PWR?
U 1 1 5FBD8322
P 10400 6100
F 0 "#PWR?" H 10400 5850 50  0001 C CNN
F 1 "GND" H 10405 5927 50  0000 C CNN
F 2 "" H 10400 6100 50  0001 C CNN
F 3 "" H 10400 6100 50  0001 C CNN
	1    10400 6100
	1    0    0    -1  
$EndComp
$Comp
L Rb-Multi-Reference-v10-rescue:SPARKFUN-PASSIVES_RESISTOR0603-RES-Rb-Multi-Reference-v10-Rb-Multi-Reference-v10-rescue R?
U 1 1 5E80096E
P 10100 5800
F 0 "R?" H 9950 5859 70  0000 L BNN
F 1 "49.9" H 9950 5670 70  0000 L BNN
F 2 "SPARKFUN-PASSIVES_0603-RES" H 10090 5590 65  0001 L TNN
F 3 "" H 10100 5800 50  0001 C CNN
	1    10100 5800
	0    -1   -1   0   
$EndComp
Wire Wire Line
	10100 6100 10100 6000
Wire Wire Line
	10400 6100 10400 6000
$EndSCHEMATC
