EESchema Schematic File Version 4
EELAYER 29 0
EELAYER END
$Descr USLegal 14000 8500
encoding utf-8
Sheet 9 9
Title "GNSSDO Rb Signal Generator"
Date "2020-11-23"
Rev "0.2.0"
Comp "TechConficio Inc."
Comment1 ""
Comment2 "License : CC BY 4.0"
Comment3 "Author : Steven Knudsen"
Comment4 "Author : Steven Knudsen"
$EndDescr
$Comp
L Rb-Multi-Reference-v10-rescue:SPARKFUN-PASSIVES_CAP0603-CAP-Rb-Multi-Reference-v10-Rb-Multi-Reference-v10-rescue C23
U 1 1 5E803A44
P 6450 4050
F 0 "C23" H 6510 4165 70  0000 L BNN
F 1 "0.1uF" H 6510 3965 70  0000 L BNN
F 2 "SPARKFUN-PASSIVES_0603-CAP" H 6440 3840 65  0001 L TNN
F 3 "" H 6450 4050 50  0001 C CNN
	1    6450 4050
	0    -1   -1   0   
$EndComp
$Comp
L Rb-Multi-Reference-v10-rescue:SPARKFUN-PASSIVES_CAP0603-CAP-Rb-Multi-Reference-v10-Rb-Multi-Reference-v10-rescue C24
U 1 1 5E803B0C
P 8350 4050
F 0 "C24" H 8410 4165 70  0000 L BNN
F 1 "0.1uF" H 8410 3965 70  0000 L BNN
F 2 "SPARKFUN-PASSIVES_0603-CAP" H 8340 3840 65  0001 L TNN
F 3 "" H 8350 4050 50  0001 C CNN
	1    8350 4050
	0    -1   -1   0   
$EndComp
$Comp
L Rb-Multi-Reference-v10-rescue:FRAMES_LETTER_L-Rb-Multi-Reference-v10-Rb-Multi-Reference-v10-rescue #FRAME
U 1 1 5E803B70
P 5950 11250
F 0 "#FRAME" H 5950 11250 50  0001 C CNN
F 1 "~" H 5950 11250 50  0001 C CNN
F 2 "" H 5950 11250 50  0001 C CNN
F 3 "" H 5950 11250 50  0001 C CNN
	1    5950 11250
	1    0    0    -1  
$EndComp
$Comp
L Rb-Multi-Reference-v10-rescue:SPARKFUN-PASSIVES_RESISTOR0603-RES-Rb-Multi-Reference-v10-Rb-Multi-Reference-v10-rescue R26
U 1 1 5E803EF4
P 5550 4050
F 0 "R26" H 5400 4109 70  0000 L BNN
F 1 "1.5k" H 5400 3920 70  0000 L BNN
F 2 "SPARKFUN-PASSIVES_0603-RES" H 5540 3840 65  0001 L TNN
F 3 "" H 5550 4050 50  0001 C CNN
	1    5550 4050
	0    -1   -1   0   
$EndComp
$Comp
L Rb-Multi-Reference-v10-rescue:SPARKFUN-PASSIVES_RESISTOR0603-RES-Rb-Multi-Reference-v10-Rb-Multi-Reference-v10-rescue R27
U 1 1 5E803FBC
P 5850 4050
F 0 "R27" H 5700 4109 70  0000 L BNN
F 1 "1.5k" H 5700 3920 70  0000 L BNN
F 2 "SPARKFUN-PASSIVES_0603-RES" H 5840 3840 65  0001 L TNN
F 3 "" H 5850 4050 50  0001 C CNN
	1    5850 4050
	0    -1   -1   0   
$EndComp
$Comp
L Rb-Multi-Reference-v10-rescue:SPARKFUN-PASSIVES_RESISTOR0603-RES-Rb-Multi-Reference-v10-Rb-Multi-Reference-v10-rescue R28
U 1 1 5E804084
P 9150 4050
F 0 "R28" H 9000 4109 70  0000 L BNN
F 1 "1.5k" H 9000 3920 70  0000 L BNN
F 2 "SPARKFUN-PASSIVES_0603-RES" H 9140 3840 65  0001 L TNN
F 3 "" H 9150 4050 50  0001 C CNN
	1    9150 4050
	0    -1   -1   0   
$EndComp
$Comp
L Rb-Multi-Reference-v10-rescue:SPARKFUN-PASSIVES_RESISTOR0603-RES-Rb-Multi-Reference-v10-Rb-Multi-Reference-v10-rescue R29
U 1 1 5E80414C
P 9450 4050
F 0 "R29" H 9300 4109 70  0000 L BNN
F 1 "1.5k" H 9300 3920 70  0000 L BNN
F 2 "SPARKFUN-PASSIVES_0603-RES" H 9440 3840 65  0001 L TNN
F 3 "" H 9450 4050 50  0001 C CNN
	1    9450 4050
	0    -1   -1   0   
$EndComp
$Comp
L Rb-Multi-Reference-v10-rescue:TEXASINSTRUMENTSSIGNALLING_ISO154X-Rb-Multi-Reference-v10-Rb-Multi-Reference-v10-rescue U$1
U 1 1 5E804214
P 7350 4750
F 0 "U$1" H 6950 5190 70  0000 L BNN
F 1 "ISO154X" H 6950 4250 70  0000 L BNN
F 2 "TEXASINSTRUMENTSSIGNALLING_SOIC8" H 7340 4540 65  0001 L TNN
F 3 "" H 7350 4750 50  0001 C CNN
	1    7350 4750
	1    0    0    -1  
$EndComp
Wire Wire Line
	6750 4450 6650 4450
Wire Wire Line
	6650 4450 6650 4050
Wire Wire Line
	6650 4050 6550 4050
Wire Wire Line
	6650 4050 6650 3650
Wire Wire Line
	6650 3650 6150 3650
Wire Wire Line
	6150 3650 5850 3650
Wire Wire Line
	5850 3650 5550 3650
Wire Wire Line
	5550 3650 5550 3850
Wire Wire Line
	5850 3850 5850 3650
Wire Wire Line
	6150 3450 6150 3650
Connection ~ 6650 4050
Connection ~ 5850 3650
Connection ~ 6150 3650
Wire Wire Line
	6150 4250 6150 4050
Wire Wire Line
	6150 4050 6250 4050
Wire Wire Line
	6750 5050 6550 5050
Wire Wire Line
	6550 5050 6550 5350
Wire Wire Line
	7950 4450 8050 4450
Wire Wire Line
	8050 4450 8050 4050
Wire Wire Line
	8050 4050 8150 4050
Wire Wire Line
	8050 4050 8050 3650
Wire Wire Line
	8050 3650 8550 3650
Wire Wire Line
	8550 3650 9150 3650
Wire Wire Line
	9150 3650 9450 3650
Wire Wire Line
	9150 3850 9150 3650
Wire Wire Line
	8550 3450 8550 3650
Connection ~ 8050 4050
Connection ~ 9150 3650
Connection ~ 8550 3650
Text Label 8850 3650 0    65   ~ 0
S3.3V
Wire Wire Line
	6750 4850 5850 4850
Wire Wire Line
	5850 4850 4750 4850
Wire Wire Line
	5850 4250 5850 4850
Connection ~ 5850 4850
Text Label 4750 4850 0    65   ~ 0
SCL1
Wire Wire Line
	6750 4650 5550 4650
Wire Wire Line
	5550 4650 4750 4650
Wire Wire Line
	5550 4250 5550 4650
Connection ~ 5550 4650
Text Label 4750 4650 0    65   ~ 0
SDA1
Wire Wire Line
	7950 5050 8250 5050
Wire Wire Line
	8250 5050 8250 5350
Text Label 8050 5050 0    65   ~ 0
SGND
Wire Wire Line
	8450 4050 8550 4050
Wire Wire Line
	8550 4050 8550 4250
Wire Wire Line
	7950 4850 9150 4850
Wire Wire Line
	9150 4850 10250 4850
Wire Wire Line
	9150 4250 9150 4850
Connection ~ 9150 4850
Text Label 10050 4850 0    65   ~ 0
SSCL
Wire Wire Line
	7950 4650 9450 4650
Wire Wire Line
	9450 4650 10250 4650
Wire Wire Line
	9450 4250 9450 4650
Connection ~ 9450 4650
Text Label 10050 4650 0    65   ~ 0
SSDA
Wire Wire Line
	9450 3650 9450 3850
$Comp
L power:+3.3V #PWR?
U 1 1 5FC13FC1
P 8550 3450
F 0 "#PWR?" H 8550 3300 50  0001 C CNN
F 1 "+3.3V" H 8565 3623 50  0000 C CNN
F 2 "" H 8550 3450 50  0001 C CNN
F 3 "" H 8550 3450 50  0001 C CNN
	1    8550 3450
	1    0    0    -1  
$EndComp
$Comp
L power:+3.3V #PWR?
U 1 1 5FC14722
P 6150 3450
F 0 "#PWR?" H 6150 3300 50  0001 C CNN
F 1 "+3.3V" H 6165 3623 50  0000 C CNN
F 2 "" H 6150 3450 50  0001 C CNN
F 3 "" H 6150 3450 50  0001 C CNN
	1    6150 3450
	1    0    0    -1  
$EndComp
$Comp
L power:GND #PWR?
U 1 1 5FC15134
P 6550 5350
F 0 "#PWR?" H 6550 5100 50  0001 C CNN
F 1 "GND" H 6555 5177 50  0000 C CNN
F 2 "" H 6550 5350 50  0001 C CNN
F 3 "" H 6550 5350 50  0001 C CNN
	1    6550 5350
	1    0    0    -1  
$EndComp
$Comp
L power:GNDA #PWR?
U 1 1 5FC161AD
P 8250 5350
F 0 "#PWR?" H 8250 5100 50  0001 C CNN
F 1 "GNDA" H 8255 5177 50  0000 C CNN
F 2 "" H 8250 5350 50  0001 C CNN
F 3 "" H 8250 5350 50  0001 C CNN
	1    8250 5350
	1    0    0    -1  
$EndComp
$Comp
L power:GNDA #PWR?
U 1 1 5FC179CC
P 8550 4250
F 0 "#PWR?" H 8550 4000 50  0001 C CNN
F 1 "GNDA" H 8555 4077 50  0000 C CNN
F 2 "" H 8550 4250 50  0001 C CNN
F 3 "" H 8550 4250 50  0001 C CNN
	1    8550 4250
	1    0    0    -1  
$EndComp
$Comp
L power:GND #PWR?
U 1 1 5FC1866B
P 6150 4250
F 0 "#PWR?" H 6150 4000 50  0001 C CNN
F 1 "GND" H 6155 4077 50  0000 C CNN
F 2 "" H 6150 4250 50  0001 C CNN
F 3 "" H 6150 4250 50  0001 C CNN
	1    6150 4250
	1    0    0    -1  
$EndComp
$EndSCHEMATC
