EESchema Schematic File Version 4
EELAYER 29 0
EELAYER END
$Descr USLegal 14000 8500
encoding utf-8
Sheet 2 9
Title "GNSSDO Rb Signal Generator"
Date "2020-11-23"
Rev "0.2.0"
Comp "TechConficio Inc."
Comment1 ""
Comment2 "License : CC BY 4.0"
Comment3 "Author : Steven Knudsen"
Comment4 "10 MHz Reference Buffer"
$EndDescr
$Comp
L Rb-Multi-Reference-v10-rescue:SPARKFUN-PASSIVES_CAP0603-CAP-Rb-Multi-Reference-v10-Rb-Multi-Reference-v10-rescue C201
U 1 1 5E7FCB51
P 6350 3400
F 0 "C201" H 6050 3300 70  0000 L BNN
F 1 "1u" H 6100 3500 70  0000 L BNN
F 2 "Capacitors_SMD:C_0603" H 6340 3190 65  0001 L TNN
F 3 "" H 6350 3400 50  0001 C CNN
	1    6350 3400
	-1   0    0    1   
$EndComp
$Comp
L Rb-Multi-Reference-v10-rescue:SPARKFUN-PASSIVES_CAP0603-CAP-Rb-Multi-Reference-v10-Rb-Multi-Reference-v10-rescue C202
U 1 1 5E7FCC19
P 5450 5700
F 0 "C202" H 5150 5600 70  0000 L BNN
F 1 "2u2" H 5200 5850 70  0000 L BNN
F 2 "Capacitors_SMD:C_0603" H 5440 5490 65  0001 L TNN
F 3 "" H 5450 5700 50  0001 C CNN
	1    5450 5700
	-1   0    0    1   
$EndComp
$Comp
L Rb-Multi-Reference-v10-rescue:SPARKFUN-PASSIVES_CAP0603-CAP-Rb-Multi-Reference-v10-Rb-Multi-Reference-v10-rescue C203
U 1 1 5E7FCCE1
P 4350 5400
F 0 "C203" H 4400 5300 70  0000 L BNN
F 1 "2u2" H 4400 5550 70  0000 L BNN
F 2 "Capacitors_SMD:C_0603" H 4340 5190 65  0001 L TNN
F 3 "" H 4350 5400 50  0001 C CNN
	1    4350 5400
	-1   0    0    1   
$EndComp
$Comp
L Rb-Multi-Reference-v10-rescue:SPARKFUN-PASSIVES_CAP0603-CAP-Rb-Multi-Reference-v10-Rb-Multi-Reference-v10-rescue C204
U 1 1 5E7FCDA9
P 8950 3000
F 0 "C204" H 8650 2900 70  0000 L BNN
F 1 "2p" H 8750 3150 70  0000 L BNN
F 2 "Capacitors_SMD:C_0603" H 8940 2790 65  0001 L TNN
F 3 "" H 8950 3000 50  0001 C CNN
	1    8950 3000
	-1   0    0    1   
$EndComp
$Comp
L Rb-Multi-Reference-v10-rescue:SPARKFUN-PASSIVES_CAP0603-CAP-Rb-Multi-Reference-v10-Rb-Multi-Reference-v10-rescue C205
U 1 1 5E7FCE71
P 8550 3600
F 0 "C205" H 8250 3500 70  0000 L BNN
F 1 "2p" H 8350 3700 70  0000 L BNN
F 2 "Capacitors_SMD:C_0603" H 8540 3390 65  0001 L TNN
F 3 "" H 8550 3600 50  0001 C CNN
	1    8550 3600
	-1   0    0    1   
$EndComp
$Comp
L Rb-Multi-Reference-v10-rescue:FRAMES_LETTER_L-Rb-Multi-Reference-v10-Rb-Multi-Reference-v10-rescue #FRAME
U 1 1 5E7FCED5
P 5950 11250
F 0 "#FRAME" H 5950 11250 50  0001 C CNN
F 1 "~" H 5950 11250 50  0001 C CNN
F 2 "" H 5950 11250 50  0001 C CNN
F 3 "" H 5950 11250 50  0001 C CNN
	1    5950 11250
	1    0    0    -1  
$EndComp
$Comp
L Rb-Multi-Reference-v10-rescue:SPARKFUN-PASSIVES_RESISTOR0603-RES-Rb-Multi-Reference-v10-Rb-Multi-Reference-v10-rescue R201
U 1 1 5E7FD1F5
P 5950 3500
F 0 "R201" V 6000 3550 70  0000 L BNN
F 1 "50" V 5900 3550 70  0000 L BNN
F 2 "Resistors_SMD:R_0603" H 5940 3290 65  0001 L TNN
F 3 "" H 5950 3500 50  0001 C CNN
	1    5950 3500
	0    -1   -1   0   
$EndComp
$Comp
L Rb-Multi-Reference-v10-rescue:SPARKFUN-PASSIVES_RESISTOR0603-RES-Rb-Multi-Reference-v10-Rb-Multi-Reference-v10-rescue R202
U 1 1 5E7FD2BD
P 4950 5100
F 0 "R202" V 5000 5200 70  0000 L BNN
F 1 "10k" V 4900 5150 70  0000 L BNN
F 2 "SPARKFUN-PASSIVES_0603-RES" H 4940 4890 65  0001 L TNN
F 3 "" H 4950 5100 50  0001 C CNN
	1    4950 5100
	0    -1   -1   0   
$EndComp
$Comp
L Rb-Multi-Reference-v10-rescue:SPARKFUN-PASSIVES_RESISTOR0603-RES-Rb-Multi-Reference-v10-Rb-Multi-Reference-v10-rescue R203
U 1 1 5E7FD385
P 4950 5700
F 0 "R203" V 5000 5800 70  0000 L BNN
F 1 "10k" V 4900 5750 70  0000 L BNN
F 2 "SPARKFUN-PASSIVES_0603-RES" H 4940 5490 65  0001 L TNN
F 3 "" H 4950 5700 50  0001 C CNN
	1    4950 5700
	0    -1   -1   0   
$EndComp
$Comp
L GNSSDO-Rb-Signal-Generator-cache:GNSSDO-Rb-Signal-Generator-cache_PULSE_CX2156NL T201
U 1 1 5E7FD44D
P 4850 3400
F 0 "T201" H 4750 3650 70  0000 L BNN
F 1 "CX2156NL" H 4000 3250 70  0000 L BNN
F 2 "PULSE_CX2XXXNL" H 4840 3190 65  0001 L TNN
F 3 "" H 4850 3400 50  0001 C CNN
	1    4850 3400
	1    0    0    -1  
$EndComp
$Comp
L Rb-Multi-Reference-v10-rescue:TEXASINSTRUMENTSCLOCKSUPPORT_CDC3RL02-Rb-Multi-Reference-v10-Rb-Multi-Reference-v10-rescue-Rb-Multi-Reference-v10-rescue U201
U 1 1 5E7FD515
P 7550 3100
AR Path="/5E7FD515" Ref="U201"  Part="1" 
AR Path="/5E7FCA69/5E7FD515" Ref="U201"  Part="1" 
F 0 "U201" H 7050 3650 70  0000 L BNN
F 1 "CDC3RL02" H 7050 2450 70  0000 L BNN
F 2 "Rb-Multi-Reference-v10:TEXASINSTRUMENTSCLOCKSUPPORT_YFP(R-XBGA-N8)" H 7540 2890 65  0001 L TNN
F 3 "" H 7550 3100 50  0001 C CNN
	1    7550 3100
	1    0    0    -1  
$EndComp
Wire Wire Line
	6850 2800 6350 2800
Wire Wire Line
	6350 2800 6350 2400
Wire Wire Line
	6350 2800 6350 3300
Connection ~ 6350 2800
Wire Wire Line
	4950 5500 4950 5400
Wire Wire Line
	4950 5400 4950 5300
Wire Wire Line
	5450 5600 5450 5400
Wire Wire Line
	4950 5400 5450 5400
Wire Wire Line
	5050 3600 5050 3800
Wire Wire Line
	5050 3800 5450 3800
Wire Wire Line
	5450 3800 5950 3800
Wire Wire Line
	5950 3800 5950 3700
Wire Wire Line
	5450 5400 5450 3800
Connection ~ 4950 5400
Connection ~ 5450 5400
Connection ~ 5450 3800
Wire Wire Line
	8250 2800 8950 2800
Wire Wire Line
	8950 2800 10250 2800
Wire Wire Line
	8950 2900 8950 2800
Connection ~ 8950 2800
Wire Wire Line
	4650 3200 2850 3200
Wire Wire Line
	6350 3800 6350 3600
Wire Wire Line
	6850 3800 6350 3800
Wire Wire Line
	6850 3800 6850 3400
Wire Wire Line
	4650 3600 4550 3600
Wire Wire Line
	4550 3600 4550 3900
Wire Wire Line
	8550 3900 8550 3800
Wire Wire Line
	8950 3900 8950 3200
Wire Wire Line
	4950 5900 4950 6100
Wire Wire Line
	4950 6100 5450 6100
Wire Wire Line
	5450 6100 5450 5900
Wire Wire Line
	4950 6300 4950 6100
Wire Wire Line
	4950 6100 4350 6100
Wire Wire Line
	4350 6100 4350 5600
Connection ~ 4950 6100
Wire Wire Line
	5050 3200 5950 3200
Wire Wire Line
	5950 3200 6850 3200
Wire Wire Line
	5950 3300 5950 3200
Connection ~ 5950 3200
Wire Wire Line
	8250 3400 8550 3400
Wire Wire Line
	8550 3400 10250 3400
Wire Wire Line
	8550 3500 8550 3400
Connection ~ 8550 3400
Wire Wire Line
	6850 3000 6550 3000
Text Label 6500 2970 0    65   ~ 0
VLDO
Wire Wire Line
	4350 5300 4350 4800
Wire Wire Line
	4350 4800 4950 4800
Wire Wire Line
	4950 4800 4950 4900
Wire Wire Line
	4350 4800 4350 4500
Connection ~ 4350 4800
Text Label 4230 4450 0    65   ~ 0
VLDO
Wire Wire Line
	8250 3200 8550 3200
Wire Wire Line
	8550 3200 8550 3000
Wire Wire Line
	8250 3000 8550 3000
Wire Wire Line
	8550 3000 8550 2200
Connection ~ 8550 3000
Text Label 8420 2160 0    65   ~ 0
VLDO
$Comp
L power:GND #PWR0101
U 1 1 5E80A1A9
P 4950 6300
F 0 "#PWR0101" H 4950 6050 50  0001 C CNN
F 1 "GND" H 4955 6127 50  0000 C CNN
F 2 "" H 4950 6300 50  0001 C CNN
F 3 "" H 4950 6300 50  0001 C CNN
	1    4950 6300
	1    0    0    -1  
$EndComp
$Comp
L power:GND #PWR0102
U 1 1 5E80B097
P 4550 3900
F 0 "#PWR0102" H 4550 3650 50  0001 C CNN
F 1 "GND" H 4555 3727 50  0000 C CNN
F 2 "" H 4550 3900 50  0001 C CNN
F 3 "" H 4550 3900 50  0001 C CNN
	1    4550 3900
	1    0    0    -1  
$EndComp
$Comp
L power:GND #PWR0103
U 1 1 5E80BEFE
P 6850 3950
F 0 "#PWR0103" H 6850 3700 50  0001 C CNN
F 1 "GND" H 6855 3777 50  0000 C CNN
F 2 "" H 6850 3950 50  0001 C CNN
F 3 "" H 6850 3950 50  0001 C CNN
	1    6850 3950
	1    0    0    -1  
$EndComp
$Comp
L power:GND #PWR0104
U 1 1 5E80C851
P 8550 3900
F 0 "#PWR0104" H 8550 3650 50  0001 C CNN
F 1 "GND" H 8555 3727 50  0000 C CNN
F 2 "" H 8550 3900 50  0001 C CNN
F 3 "" H 8550 3900 50  0001 C CNN
	1    8550 3900
	1    0    0    -1  
$EndComp
$Comp
L power:GND #PWR0105
U 1 1 5E80CD1F
P 8950 3900
F 0 "#PWR0105" H 8950 3650 50  0001 C CNN
F 1 "GND" H 8955 3727 50  0000 C CNN
F 2 "" H 8950 3900 50  0001 C CNN
F 3 "" H 8950 3900 50  0001 C CNN
	1    8950 3900
	1    0    0    -1  
$EndComp
Text GLabel 2850 3200 0    50   Input ~ 0
FE-5680A-10MHZ
Text GLabel 10250 2800 2    50   Input ~ 0
CDCLVC1104_CLKIN
Text GLabel 10250 3400 2    50   Input ~ 0
SI5338A_IN
Wire Wire Line
	6850 3800 6850 3950
Connection ~ 6850 3800
$Comp
L power:+3V3 #PWR?
U 1 1 5EB4A72D
P 6350 2400
F 0 "#PWR?" H 6350 2250 50  0001 C CNN
F 1 "+3V3" H 6365 2573 50  0000 C CNN
F 2 "" H 6350 2400 50  0001 C CNN
F 3 "" H 6350 2400 50  0001 C CNN
	1    6350 2400
	1    0    0    -1  
$EndComp
$EndSCHEMATC
