EESchema Schematic File Version 4
LIBS:GNSSDO-Rb-Signal-Generator-cache
EELAYER 29 0
EELAYER END
$Descr A4 11693 8268
encoding utf-8
Sheet 1 2
Title ""
Date ""
Rev ""
Comp ""
Comment1 ""
Comment2 ""
Comment3 ""
Comment4 ""
$EndDescr
$Sheet
S 800  2150 850  850 
U 5FBD32A5
F0 "Clock Buffer" 50
F1 "GNSSDO-Rb-Signal-Generator-v10_SS_2.sch" 50
$EndSheet
$EndSCHEMATC
