EESchema Schematic File Version 4
LIBS:GNSSDO-Rb-Signal-Generator-cache
EELAYER 29 0
EELAYER END
$Descr USLegal 14000 8500
encoding utf-8
Sheet 2 2
Title "GNSSDO Rb Signal Generator"
Date "2020-11-23"
Rev "0.2.0"
Comp "TechConficio Inc."
Comment1 ""
Comment2 "License : CC BY 4.0"
Comment3 "Author : Steven Knudsen"
Comment4 ""
$EndDescr
$Comp
L Rb-Multi-Reference-v10-rescue:SPARKFUN-PASSIVES_CAP0603-CAP-Rb-Multi-Reference-v10-Rb-Multi-Reference-v10-rescue C?
U 1 1 5E7FD6A5
P 2950 2200
F 0 "C?" H 3010 2315 70  0000 L BNN
F 1 "0 Ohm" H 3010 2115 70  0000 L BNN
F 2 "SPARKFUN-PASSIVES_0603-CAP" H 2940 1990 65  0001 L TNN
F 3 "" H 2950 2200 50  0001 C CNN
	1    2950 2200
	0    -1   -1   0   
$EndComp
$Comp
L Rb-Multi-Reference-v10-rescue:SPARKFUN-PASSIVES_CAP0603-CAP-Rb-Multi-Reference-v10-Rb-Multi-Reference-v10-rescue C?
U 1 1 5E7FD76D
P 4550 4500
F 0 "C?" H 4610 4615 70  0000 L BNN
F 1 "0 Ohm" H 4610 4415 70  0000 L BNN
F 2 "SPARKFUN-PASSIVES_0603-CAP" H 4540 4290 65  0001 L TNN
F 3 "" H 4550 4500 50  0001 C CNN
	1    4550 4500
	0    -1   -1   0   
$EndComp
$Comp
L Rb-Multi-Reference-v10-rescue:SPARKFUN-PASSIVES_CAP0603-CAP-Rb-Multi-Reference-v10-Rb-Multi-Reference-v10-rescue C?
U 1 1 5E7FD835
P 8350 2600
F 0 "C?" H 8410 2715 70  0000 L BNN
F 1 "0 Ohm" H 8410 2515 70  0000 L BNN
F 2 "SPARKFUN-PASSIVES_0603-CAP" H 8340 2390 65  0001 L TNN
F 3 "" H 8350 2600 50  0001 C CNN
	1    8350 2600
	0    -1   -1   0   
$EndComp
$Comp
L Rb-Multi-Reference-v10-rescue:SPARKFUN-PASSIVES_CAP0603-CAP-Rb-Multi-Reference-v10-Rb-Multi-Reference-v10-rescue C?
U 1 1 5E7FD8FD
P 9150 5400
F 0 "C?" H 9210 5515 70  0000 L BNN
F 1 "0 Ohm" H 9210 5315 70  0000 L BNN
F 2 "SPARKFUN-PASSIVES_0603-CAP" H 9140 5190 65  0001 L TNN
F 3 "" H 9150 5400 50  0001 C CNN
	1    9150 5400
	0    -1   -1   0   
$EndComp
$Comp
L Rb-Multi-Reference-v10-rescue:SPARKFUN-PASSIVES_CAP0603-CAP-Rb-Multi-Reference-v10-Rb-Multi-Reference-v10-rescue C?
U 1 1 5E7FD9C5
P 8750 4000
F 0 "C?" H 8810 4115 70  0000 L BNN
F 1 "0 Ohm" H 8810 3915 70  0000 L BNN
F 2 "SPARKFUN-PASSIVES_0603-CAP" H 8740 3790 65  0001 L TNN
F 3 "" H 8750 4000 50  0001 C CNN
	1    8750 4000
	0    -1   -1   0   
$EndComp
$Comp
L Rb-Multi-Reference-v10-rescue:FRAMES_LETTER_L-Rb-Multi-Reference-v10-Rb-Multi-Reference-v10-rescue #FRAME?
U 1 1 5E7FDA29
P 5950 11250
F 0 "#FRAME?" H 5950 11250 50  0001 C CNN
F 1 "~" H 5950 11250 50  0001 C CNN
F 2 "" H 5950 11250 50  0001 C CNN
F 3 "" H 5950 11250 50  0001 C CNN
	1    5950 11250
	1    0    0    -1  
$EndComp
$Comp
L Rb-Multi-Reference-v10-rescue:KSK-CONNECTORS_MCX_JACK_THRU-Rb-Multi-Reference-v10-Rb-Multi-Reference-v10-rescue J?
U 1 1 5E7FDFA1
P 1850 4500
F 0 "J?" H 1800 4750 70  0000 L BNN
F 1 "MCX_JACK_THRU" H 1500 4650 70  0000 L BNN
F 2 "KSK-CONNECTORS_MCX_THRU_JACK" H 1840 4290 65  0001 L TNN
F 3 "" H 1850 4500 50  0001 C CNN
	1    1850 4500
	1    0    0    -1  
$EndComp
$Comp
L Rb-Multi-Reference-v10-rescue:KSK-CONNECTORS_MCX_JACK_THRU-Rb-Multi-Reference-v10-Rb-Multi-Reference-v10-rescue J?
U 1 1 5E7FE069
P 10600 2600
F 0 "J?" H 10500 2820 70  0000 L BNN
F 1 "MCX_JACK_THRU" H 10500 2720 70  0000 L BNN
F 2 "KSK-CONNECTORS_MCX_THRU_JACK" H 10590 2390 65  0001 L TNN
F 3 "" H 10600 2600 50  0001 C CNN
	1    10600 2600
	-1   0    0    -1  
$EndComp
$Comp
L Rb-Multi-Reference-v10-rescue:KSK-CONNECTORS_MCX_JACK_THRU-Rb-Multi-Reference-v10-Rb-Multi-Reference-v10-rescue J?
U 1 1 5E7FE131
P 10600 4000
F 0 "J?" H 10500 4220 70  0000 L BNN
F 1 "MCX_JACK_THRU" H 10500 4120 70  0000 L BNN
F 2 "KSK-CONNECTORS_MCX_THRU_JACK" H 10590 3790 65  0001 L TNN
F 3 "" H 10600 4000 50  0001 C CNN
	1    10600 4000
	-1   0    0    -1  
$EndComp
$Comp
L Rb-Multi-Reference-v10-rescue:KSK-CONNECTORS_MCX_JACK_THRU-Rb-Multi-Reference-v10-Rb-Multi-Reference-v10-rescue J?
U 1 1 5E7FE1F9
P 10600 5400
F 0 "J?" H 10500 5620 70  0000 L BNN
F 1 "MCX_JACK_THRU" H 10500 5520 70  0000 L BNN
F 2 "KSK-CONNECTORS_MCX_THRU_JACK" H 10590 5190 65  0001 L TNN
F 3 "" H 10600 5400 50  0001 C CNN
	1    10600 5400
	-1   0    0    -1  
$EndComp
$Comp
L Rb-Multi-Reference-v10-rescue:SPARKFUN-PASSIVES_RESISTOR0603-RES-Rb-Multi-Reference-v10-Rb-Multi-Reference-v10-rescue R?
U 1 1 5E7FE4B5
P 3450 1800
F 0 "R?" H 3300 1859 70  0000 L BNN
F 1 "NP" H 3300 1670 70  0000 L BNN
F 2 "SPARKFUN-PASSIVES_0603-RES" H 3440 1590 65  0001 L TNN
F 3 "" H 3450 1800 50  0001 C CNN
	1    3450 1800
	0    -1   -1   0   
$EndComp
$Comp
L Rb-Multi-Reference-v10-rescue:SPARKFUN-PASSIVES_RESISTOR0603-RES-Rb-Multi-Reference-v10-Rb-Multi-Reference-v10-rescue R?
U 1 1 5E7FE57D
P 3450 2500
F 0 "R?" H 3300 2559 70  0000 L BNN
F 1 "NP" H 3300 2370 70  0000 L BNN
F 2 "SPARKFUN-PASSIVES_0603-RES" H 3440 2290 65  0001 L TNN
F 3 "" H 3450 2500 50  0001 C CNN
	1    3450 2500
	0    -1   -1   0   
$EndComp
$Comp
L Rb-Multi-Reference-v10-rescue:SPARKFUN-PASSIVES_RESISTOR0603-RES-Rb-Multi-Reference-v10-Rb-Multi-Reference-v10-rescue R?
U 1 1 5E7FE645
P 2750 4200
F 0 "R?" H 2600 4259 70  0000 L BNN
F 1 "NP" H 2600 4070 70  0000 L BNN
F 2 "SPARKFUN-PASSIVES_0603-RES" H 2740 3990 65  0001 L TNN
F 3 "" H 2750 4200 50  0001 C CNN
	1    2750 4200
	0    -1   -1   0   
$EndComp
$Comp
L Rb-Multi-Reference-v10-rescue:SPARKFUN-PASSIVES_RESISTOR0603-RES-Rb-Multi-Reference-v10-Rb-Multi-Reference-v10-rescue R?
U 1 1 5E7FE70D
P 2750 4800
F 0 "R?" H 2600 4859 70  0000 L BNN
F 1 "NP" H 2600 4670 70  0000 L BNN
F 2 "SPARKFUN-PASSIVES_0603-RES" H 2740 4590 65  0001 L TNN
F 3 "" H 2750 4800 50  0001 C CNN
	1    2750 4800
	0    -1   -1   0   
$EndComp
$Comp
L Rb-Multi-Reference-v10-rescue:SPARKFUN-PASSIVES_RESISTOR0603-RES-Rb-Multi-Reference-v10-Rb-Multi-Reference-v10-rescue R?
U 1 1 5E7FE7D5
P 8750 2300
F 0 "R?" H 8600 2359 70  0000 L BNN
F 1 "NP" H 8600 2170 70  0000 L BNN
F 2 "SPARKFUN-PASSIVES_0603-RES" H 8740 2090 65  0001 L TNN
F 3 "" H 8750 2300 50  0001 C CNN
	1    8750 2300
	0    -1   -1   0   
$EndComp
$Comp
L Rb-Multi-Reference-v10-rescue:SPARKFUN-PASSIVES_RESISTOR0603-RES-Rb-Multi-Reference-v10-Rb-Multi-Reference-v10-rescue R?
U 1 1 5E7FE89D
P 8750 2900
F 0 "R?" H 8600 2959 70  0000 L BNN
F 1 "NP" H 8600 2770 70  0000 L BNN
F 2 "SPARKFUN-PASSIVES_0603-RES" H 8740 2690 65  0001 L TNN
F 3 "" H 8750 2900 50  0001 C CNN
	1    8750 2900
	0    -1   -1   0   
$EndComp
$Comp
L Rb-Multi-Reference-v10-rescue:SPARKFUN-PASSIVES_RESISTOR0603-RES-Rb-Multi-Reference-v10-Rb-Multi-Reference-v10-rescue R?
U 1 1 5E7FE965
P 9550 5100
F 0 "R?" H 9400 5159 70  0000 L BNN
F 1 "NP" H 9400 4970 70  0000 L BNN
F 2 "SPARKFUN-PASSIVES_0603-RES" H 9540 4890 65  0001 L TNN
F 3 "" H 9550 5100 50  0001 C CNN
	1    9550 5100
	0    -1   -1   0   
$EndComp
$Comp
L Rb-Multi-Reference-v10-rescue:SPARKFUN-PASSIVES_RESISTOR0603-RES-Rb-Multi-Reference-v10-Rb-Multi-Reference-v10-rescue R?
U 1 1 5E7FEA2D
P 9550 5700
F 0 "R?" H 9400 5759 70  0000 L BNN
F 1 "NP" H 9400 5570 70  0000 L BNN
F 2 "SPARKFUN-PASSIVES_0603-RES" H 9540 5490 65  0001 L TNN
F 3 "" H 9550 5700 50  0001 C CNN
	1    9550 5700
	0    -1   -1   0   
$EndComp
$Comp
L Rb-Multi-Reference-v10-rescue:SPARKFUN-PASSIVES_RESISTOR0603-RES-Rb-Multi-Reference-v10-Rb-Multi-Reference-v10-rescue R?
U 1 1 5E7FEAF5
P 9150 3700
F 0 "R?" H 9000 3759 70  0000 L BNN
F 1 "NP" H 9000 3570 70  0000 L BNN
F 2 "SPARKFUN-PASSIVES_0603-RES" H 9140 3490 65  0001 L TNN
F 3 "" H 9150 3700 50  0001 C CNN
	1    9150 3700
	0    -1   -1   0   
$EndComp
$Comp
L Rb-Multi-Reference-v10-rescue:SPARKFUN-PASSIVES_RESISTOR0603-RES-Rb-Multi-Reference-v10-Rb-Multi-Reference-v10-rescue R?
U 1 1 5E7FEBBD
P 9150 4300
F 0 "R?" H 9000 4359 70  0000 L BNN
F 1 "NP" H 9000 4170 70  0000 L BNN
F 2 "SPARKFUN-PASSIVES_0603-RES" H 9140 4090 65  0001 L TNN
F 3 "" H 9150 4300 50  0001 C CNN
	1    9150 4300
	0    -1   -1   0   
$EndComp
$Comp
L Rb-Multi-Reference-v10-rescue:SPARKFUN-PASSIVES_RESISTOR0603-RES-Rb-Multi-Reference-v10-Rb-Multi-Reference-v10-rescue R?
U 1 1 5E7FEC85
P 4950 3800
F 0 "R?" H 4800 3859 70  0000 L BNN
F 1 "1 k" H 4800 3670 70  0000 L BNN
F 2 "SPARKFUN-PASSIVES_0603-RES" H 4940 3590 65  0001 L TNN
F 3 "" H 4950 3800 50  0001 C CNN
	1    4950 3800
	0    -1   -1   0   
$EndComp
$Comp
L Rb-Multi-Reference-v10-rescue:SPARKFUN-PASSIVES_RESISTOR0603-RES-Rb-Multi-Reference-v10-Rb-Multi-Reference-v10-rescue R?
U 1 1 5E7FED4D
P 4450 3400
F 0 "R?" H 4300 3459 70  0000 L BNN
F 1 "0 Ohm" H 4300 3270 70  0000 L BNN
F 2 "SPARKFUN-PASSIVES_0603-RES" H 4440 3190 65  0001 L TNN
F 3 "" H 4450 3400 50  0001 C CNN
	1    4450 3400
	1    0    0    -1  
$EndComp
$Comp
L Rb-Multi-Reference-v10-rescue:SPARKFUN-PASSIVES_RESISTOR0603-RES-Rb-Multi-Reference-v10-Rb-Multi-Reference-v10-rescue R?
U 1 1 5E7FEE15
P 5150 4500
F 0 "R?" H 5000 4559 70  0000 L BNN
F 1 "0 Ohm" H 5000 4370 70  0000 L BNN
F 2 "SPARKFUN-PASSIVES_0603-RES" H 5140 4290 65  0001 L TNN
F 3 "" H 5150 4500 50  0001 C CNN
	1    5150 4500
	1    0    0    -1  
$EndComp
$Comp
L Rb-Multi-Reference-v10-rescue:SPARKFUN-PASSIVES_RESISTOR0603-RES-Rb-Multi-Reference-v10-Rb-Multi-Reference-v10-rescue R?
U 1 1 5E7FEEDD
P 7750 2600
F 0 "R?" H 7600 2659 70  0000 L BNN
F 1 "0 Ohm" H 7600 2470 70  0000 L BNN
F 2 "SPARKFUN-PASSIVES_0603-RES" H 7740 2390 65  0001 L TNN
F 3 "" H 7750 2600 50  0001 C CNN
	1    7750 2600
	1    0    0    -1  
$EndComp
$Comp
L Rb-Multi-Reference-v10-rescue:SPARKFUN-PASSIVES_RESISTOR0603-RES-Rb-Multi-Reference-v10-Rb-Multi-Reference-v10-rescue R?
U 1 1 5E7FEFA5
P 8550 5400
F 0 "R?" H 8400 5459 70  0000 L BNN
F 1 "0 Ohm" H 8400 5270 70  0000 L BNN
F 2 "SPARKFUN-PASSIVES_0603-RES" H 8540 5190 65  0001 L TNN
F 3 "" H 8550 5400 50  0001 C CNN
	1    8550 5400
	1    0    0    -1  
$EndComp
$Comp
L Rb-Multi-Reference-v10-rescue:SPARKFUN-PASSIVES_RESISTOR0603-RES-Rb-Multi-Reference-v10-Rb-Multi-Reference-v10-rescue R?
U 1 1 5E7FF06D
P 8150 4000
F 0 "R?" H 8000 4059 70  0000 L BNN
F 1 "0 Ohm" H 8000 3870 70  0000 L BNN
F 2 "SPARKFUN-PASSIVES_0603-RES" H 8140 3790 65  0001 L TNN
F 3 "" H 8150 4000 50  0001 C CNN
	1    8150 4000
	1    0    0    -1  
$EndComp
$Comp
L Rb-Multi-Reference-v10-rescue:TEXASINSTRUMENTSCLOCKSUPPORT_CDCLVC1104-Rb-Multi-Reference-v10-Rb-Multi-Reference-v10-rescue U?
U 1 1 5E7FF135
P 6250 4400
F 0 "U?" H 5950 4850 70  0000 L BNN
F 1 "CDCLVC1104" H 5950 3890 70  0000 L BNN
F 2 "TEXASINSTRUMENTSCLOCKSUPPORT_TSSOP8" H 6240 4190 65  0001 L TNN
F 3 "" H 6250 4400 50  0001 C CNN
	1    6250 4400
	1    0    0    -1  
$EndComp
Wire Wire Line
	6750 4500 7850 4500
Wire Wire Line
	7850 4500 7850 4400
Wire Wire Line
	2750 3800 2750 4000
Wire Wire Line
	3450 1400 3450 1600
Wire Wire Line
	8750 2100 8750 2000
Wire Wire Line
	2750 2200 1550 2200
Wire Wire Line
	4250 3400 3350 3400
Wire Wire Line
	4950 4000 4950 4100
Wire Wire Line
	5550 5000 5550 4700
Wire Wire Line
	5550 4700 5750 4700
Wire Wire Line
	1850 4800 1850 4700
Wire Wire Line
	5750 4500 5350 4500
Wire Wire Line
	4650 4500 4950 4500
Wire Wire Line
	4350 4500 2750 4500
Wire Wire Line
	2750 4500 2050 4500
Wire Wire Line
	2750 4400 2750 4500
Wire Wire Line
	2750 4500 2750 4600
Connection ~ 2750 4500
Wire Wire Line
	5750 4300 5350 4300
Wire Wire Line
	5350 4300 5350 3400
Wire Wire Line
	5350 3400 4950 3400
Wire Wire Line
	4950 3400 4950 3600
Wire Wire Line
	4650 3400 4950 3400
Connection ~ 4950 3400
Wire Wire Line
	3450 2200 3450 2300
Wire Wire Line
	3050 2200 3450 2200
Wire Wire Line
	3450 2200 5550 2200
Wire Wire Line
	5550 2200 5550 4100
Connection ~ 3450 2200
Wire Wire Line
	10400 5400 9550 5400
Wire Wire Line
	9550 5400 9250 5400
Wire Wire Line
	9550 5400 9550 5500
Connection ~ 9550 5400
Wire Wire Line
	8950 5400 8750 5400
Wire Wire Line
	8350 5400 7150 5400
Wire Wire Line
	7150 5400 7150 4700
Wire Wire Line
	7150 4700 6750 4700
Wire Wire Line
	9150 4000 9150 4100
Connection ~ 9150 4000
Wire Wire Line
	7950 4000 7150 4000
Wire Wire Line
	7150 4000 7150 4300
Wire Wire Line
	6750 4100 6950 4100
Wire Wire Line
	6950 4100 6950 2600
Wire Wire Line
	6950 2600 7550 2600
Wire Wire Line
	7950 2600 8150 2600
Wire Wire Line
	8750 2500 8750 2600
Wire Wire Line
	8750 2600 8750 2700
Connection ~ 8750 2600
$Comp
L power:GND #PWR?
U 1 1 5E81BDD1
P 1850 4800
F 0 "#PWR?" H 1850 4550 50  0001 C CNN
F 1 "GND" H 1855 4627 50  0000 C CNN
F 2 "" H 1850 4800 50  0001 C CNN
F 3 "" H 1850 4800 50  0001 C CNN
	1    1850 4800
	1    0    0    -1  
$EndComp
$Comp
L power:GND #PWR?
U 1 1 5E81E29E
P 2750 5000
F 0 "#PWR?" H 2750 4750 50  0001 C CNN
F 1 "GND" H 2755 4827 50  0000 C CNN
F 2 "" H 2750 5000 50  0001 C CNN
F 3 "" H 2750 5000 50  0001 C CNN
	1    2750 5000
	1    0    0    -1  
$EndComp
$Comp
L power:GND #PWR?
U 1 1 5E81E777
P 5550 5000
F 0 "#PWR?" H 5550 4750 50  0001 C CNN
F 1 "GND" H 5555 4827 50  0000 C CNN
F 2 "" H 5550 5000 50  0001 C CNN
F 3 "" H 5550 5000 50  0001 C CNN
	1    5550 5000
	1    0    0    -1  
$EndComp
$Comp
L power:GND #PWR?
U 1 1 5E81EE3D
P 4950 4100
F 0 "#PWR?" H 4950 3850 50  0001 C CNN
F 1 "GND" H 4955 3927 50  0000 C CNN
F 2 "" H 4950 4100 50  0001 C CNN
F 3 "" H 4950 4100 50  0001 C CNN
	1    4950 4100
	1    0    0    -1  
$EndComp
Wire Wire Line
	3450 2000 3450 2200
$Comp
L power:GND #PWR?
U 1 1 5E81F1B1
P 3450 2700
F 0 "#PWR?" H 3450 2450 50  0001 C CNN
F 1 "GND" H 3455 2527 50  0000 C CNN
F 2 "" H 3450 2700 50  0001 C CNN
F 3 "" H 3450 2700 50  0001 C CNN
	1    3450 2700
	1    0    0    -1  
$EndComp
Wire Wire Line
	5550 4100 5750 4100
Wire Wire Line
	7150 4300 6750 4300
Wire Wire Line
	9150 4000 10400 4000
$Comp
L power:+3V3 #PWR?
U 1 1 5EB4C3A3
P 8750 2000
F 0 "#PWR?" H 8750 1850 50  0001 C CNN
F 1 "+3V3" H 8765 2173 50  0000 C CNN
F 2 "" H 8750 2000 50  0001 C CNN
F 3 "" H 8750 2000 50  0001 C CNN
	1    8750 2000
	1    0    0    -1  
$EndComp
$Comp
L power:+3V3 #PWR?
U 1 1 5EB4CD6E
P 3450 1400
F 0 "#PWR?" H 3450 1250 50  0001 C CNN
F 1 "+3V3" H 3465 1573 50  0000 C CNN
F 2 "" H 3450 1400 50  0001 C CNN
F 3 "" H 3450 1400 50  0001 C CNN
	1    3450 1400
	1    0    0    -1  
$EndComp
$Comp
L power:+3V3 #PWR?
U 1 1 5EB4D4BC
P 2750 3800
F 0 "#PWR?" H 2750 3650 50  0001 C CNN
F 1 "+3V3" H 2765 3973 50  0000 C CNN
F 2 "" H 2750 3800 50  0001 C CNN
F 3 "" H 2750 3800 50  0001 C CNN
	1    2750 3800
	1    0    0    -1  
$EndComp
Wire Wire Line
	8750 2600 10400 2600
Wire Wire Line
	8450 2600 8750 2600
Text GLabel 3350 3400 0    50   Input ~ 0
CDCLVC_EN
Text GLabel 1550 2200 0    50   Input ~ 0
CDCLVC1104_CLKIN
$Comp
L power:GND #PWR?
U 1 1 5EB554F9
P 10600 2950
F 0 "#PWR?" H 10600 2700 50  0001 C CNN
F 1 "GND" H 10605 2777 50  0000 C CNN
F 2 "" H 10600 2950 50  0001 C CNN
F 3 "" H 10600 2950 50  0001 C CNN
	1    10600 2950
	1    0    0    -1  
$EndComp
$Comp
L power:GND #PWR?
U 1 1 5EB55AF9
P 10600 4350
F 0 "#PWR?" H 10600 4100 50  0001 C CNN
F 1 "GND" H 10605 4177 50  0000 C CNN
F 2 "" H 10600 4350 50  0001 C CNN
F 3 "" H 10600 4350 50  0001 C CNN
	1    10600 4350
	1    0    0    -1  
$EndComp
$Comp
L power:GND #PWR?
U 1 1 5EB55EEA
P 10600 5750
F 0 "#PWR?" H 10600 5500 50  0001 C CNN
F 1 "GND" H 10605 5577 50  0000 C CNN
F 2 "" H 10600 5750 50  0001 C CNN
F 3 "" H 10600 5750 50  0001 C CNN
	1    10600 5750
	1    0    0    -1  
$EndComp
$Comp
L power:GND #PWR?
U 1 1 5EB56825
P 9550 6050
F 0 "#PWR?" H 9550 5800 50  0001 C CNN
F 1 "GND" H 9555 5877 50  0000 C CNN
F 2 "" H 9550 6050 50  0001 C CNN
F 3 "" H 9550 6050 50  0001 C CNN
	1    9550 6050
	1    0    0    -1  
$EndComp
Wire Wire Line
	9550 5300 9550 5400
$Comp
L power:GND #PWR?
U 1 1 5EB5724F
P 9150 4650
F 0 "#PWR?" H 9150 4400 50  0001 C CNN
F 1 "GND" H 9155 4477 50  0000 C CNN
F 2 "" H 9150 4650 50  0001 C CNN
F 3 "" H 9150 4650 50  0001 C CNN
	1    9150 4650
	1    0    0    -1  
$EndComp
Wire Wire Line
	8350 4000 8550 4000
Wire Wire Line
	8850 4000 9150 4000
Wire Wire Line
	9150 3900 9150 4000
$Comp
L power:GND #PWR?
U 1 1 5EB58286
P 8750 3250
F 0 "#PWR?" H 8750 3000 50  0001 C CNN
F 1 "GND" H 8755 3077 50  0000 C CNN
F 2 "" H 8750 3250 50  0001 C CNN
F 3 "" H 8750 3250 50  0001 C CNN
	1    8750 3250
	1    0    0    -1  
$EndComp
Wire Wire Line
	10600 2800 10600 2950
Wire Wire Line
	8750 3100 8750 3250
Wire Wire Line
	10600 4200 10600 4350
Wire Wire Line
	9150 4500 9150 4650
Wire Wire Line
	9550 5900 9550 6050
Wire Wire Line
	10600 5600 10600 5750
$Comp
L power:+3V3 #PWR?
U 1 1 5EB5EB26
P 9550 4800
F 0 "#PWR?" H 9550 4650 50  0001 C CNN
F 1 "+3V3" H 9565 4973 50  0000 C CNN
F 2 "" H 9550 4800 50  0001 C CNN
F 3 "" H 9550 4800 50  0001 C CNN
	1    9550 4800
	1    0    0    -1  
$EndComp
$Comp
L power:+3V3 #PWR?
U 1 1 5EB5F2B2
P 9150 3400
F 0 "#PWR?" H 9150 3250 50  0001 C CNN
F 1 "+3V3" H 9165 3573 50  0000 C CNN
F 2 "" H 9150 3400 50  0001 C CNN
F 3 "" H 9150 3400 50  0001 C CNN
	1    9150 3400
	1    0    0    -1  
$EndComp
Wire Wire Line
	9150 3500 9150 3400
Wire Wire Line
	9550 4900 9550 4800
$Comp
L power:+3V3 #PWR?
U 1 1 5EB61AB8
P 7850 4400
F 0 "#PWR?" H 7850 4250 50  0001 C CNN
F 1 "+3V3" H 7865 4573 50  0000 C CNN
F 2 "" H 7850 4400 50  0001 C CNN
F 3 "" H 7850 4400 50  0001 C CNN
	1    7850 4400
	1    0    0    -1  
$EndComp
Text Notes 10900 2650 0    50   ~ 0
Note: Not sure that MCX is the best way to go…
Text Notes 10900 4000 0    50   ~ 0
Note: Not sure that MCX is the best way to go…
Text Notes 10900 5400 0    50   ~ 0
Note: Not sure that MCX is the best way to go…
Text Notes 700  4050 0    50   ~ 0
Note: Not sure that MCX is the best way to go…
$EndSCHEMATC
