EESchema Schematic File Version 4
LIBS:Rb-Multi-Reference-v10-cache
EELAYER 29 0
EELAYER END
$Descr USLegal 14000 8500
encoding utf-8
Sheet 8 9
Title "GNSSDO Rb Signal Generator"
Date "2020-11-23"
Rev "0.2.0"
Comp "TechConficio Inc."
Comment1 ""
Comment2 "License : CC BY 4.0"
Comment3 "Author : Steven Knudsen"
Comment4 "Author : Steven Knudsen"
$EndDescr
Text Notes 2950 2600 0    70   ~ 0
Notes:\n\nC11-C14 should be low ESR
$Comp
L Rb-Multi-Reference-v10-rescue:SPARKFUN-PASSIVES_CAP0603-CAP-Rb-Multi-Reference-v10-Rb-Multi-Reference-v10-rescue C11
U 1 1 5E802DC3
P 5950 3100
F 0 "C11" H 6009 3215 70  0000 L BNN
F 1 "0.1uF" H 6010 3015 70  0000 L BNN
F 2 "SPARKFUN-PASSIVES_0603-CAP" H 5940 2890 65  0001 L TNN
F 3 "" H 5950 3100 50  0001 C CNN
	1    5950 3100
	-1   0    0    1   
$EndComp
$Comp
L Rb-Multi-Reference-v10-rescue:SPARKFUN-PASSIVES_CAP0603-CAP-Rb-Multi-Reference-v10-Rb-Multi-Reference-v10-rescue C12
U 1 1 5E802E8B
P 5950 3700
F 0 "C12" H 6010 3815 70  0000 L BNN
F 1 "0.1uF" H 6009 3615 70  0000 L BNN
F 2 "SPARKFUN-PASSIVES_0603-CAP" H 5940 3490 65  0001 L TNN
F 3 "" H 5950 3700 50  0001 C CNN
	1    5950 3700
	1    0    0    -1  
$EndComp
$Comp
L Rb-Multi-Reference-v10-rescue:SPARKFUN-PASSIVES_CAP0603-CAP-Rb-Multi-Reference-v10-Rb-Multi-Reference-v10-rescue C13
U 1 1 5E802F53
P 8950 3200
F 0 "C13" H 9010 3315 70  0000 L BNN
F 1 "0.1uF" H 9009 3115 70  0000 L BNN
F 2 "SPARKFUN-PASSIVES_0603-CAP" H 8940 2990 65  0001 L TNN
F 3 "" H 8950 3200 50  0001 C CNN
	1    8950 3200
	1    0    0    -1  
$EndComp
$Comp
L Rb-Multi-Reference-v10-rescue:SPARKFUN-PASSIVES_CAP0603-CAP-Rb-Multi-Reference-v10-Rb-Multi-Reference-v10-rescue C14
U 1 1 5E80301B
P 8950 3700
F 0 "C14" H 9010 3815 70  0000 L BNN
F 1 "0.1uF" H 9009 3615 70  0000 L BNN
F 2 "SPARKFUN-PASSIVES_0603-CAP" H 8940 3490 65  0001 L TNN
F 3 "" H 8950 3700 50  0001 C CNN
	1    8950 3700
	1    0    0    -1  
$EndComp
$Comp
L Rb-Multi-Reference-v10-rescue:SPARKFUN-PASSIVES_CAP0603-CAP-Rb-Multi-Reference-v10-Rb-Multi-Reference-v10-rescue C15
U 1 1 5E8030E3
P 4550 4800
F 0 "C15" H 4610 4915 70  0000 L BNN
F 1 "~" H 4540 4690 65  0001 L TNN
F 2 "SPARKFUN-PASSIVES_0603-CAP" H 4540 4590 65  0001 L TNN
F 3 "" H 4550 4800 50  0001 C CNN
	1    4550 4800
	1    0    0    -1  
$EndComp
$Comp
L Rb-Multi-Reference-v10-rescue:FRAMES_LETTER_L-Rb-Multi-Reference-v10-Rb-Multi-Reference-v10-rescue #FRAME
U 1 1 5E803147
P 2350 7800
F 0 "#FRAME" H 2350 7800 50  0001 C CNN
F 1 "~" H 2350 7800 50  0001 C CNN
F 2 "" H 2350 7800 50  0001 C CNN
F 3 "" H 2350 7800 50  0001 C CNN
	1    2350 7800
	1    0    0    -1  
$EndComp
$Comp
L Rb-Multi-Reference-v10-rescue:KSK-ANALOG-DEVICES_ADUM4160-Rb-Multi-Reference-v10-Rb-Multi-Reference-v10-rescue IC2
U 1 1 5E80339F
P 7350 4100
F 0 "IC2" H 6850 4550 70  0000 L BNN
F 1 "ADUM4160" H 6850 3500 70  0000 L BNN
F 2 "KSK-ANALOG-DEVICES_SO-16W" H 7340 3890 65  0001 L TNN
F 3 "" H 7350 4100 50  0001 C CNN
	1    7350 4100
	1    0    0    -1  
$EndComp
$Comp
L Rb-Multi-Reference-v10-rescue:SPARKFUN-CONNECTORS_M02LOCK-Rb-Multi-Reference-v10-Rb-Multi-Reference-v10-rescue JP1
U 1 1 5E803467
P 9550 3900
F 0 "JP1" H 9450 4130 70  0000 L BNN
F 1 "~" H 9540 3790 65  0001 L TNN
F 2 "SPARKFUN-CONNECTORS_1X02_LOCK" H 9540 3690 65  0001 L TNN
F 3 "" H 9550 3900 50  0001 C CNN
	1    9550 3900
	-1   0    0    1   
$EndComp
$Comp
L Rb-Multi-Reference-v10-rescue:KSK-CONNECTORS_MUSBB151XX-Rb-Multi-Reference-v10-Rb-Multi-Reference-v10-rescue P1
U 1 1 5E803593
P 3750 4400
F 0 "P1" H 3460 4730 70  0000 L BNN
F 1 "MUSBB151XX" H 3450 4000 70  0000 L BNN
F 2 "KSK-CONNECTORS_MUSBB151XX" H 3450 4000 70  0001 L BNN
F 3 "" H 3750 4400 50  0001 C CNN
	1    3750 4400
	-1   0    0    -1  
$EndComp
$Comp
L Rb-Multi-Reference-v10-rescue:SPARKFUN-PASSIVES_RESISTOR0603-RES-Rb-Multi-Reference-v10-Rb-Multi-Reference-v10-rescue R20
U 1 1 5E80365B
P 5100 4300
F 0 "R20" H 4800 4350 70  0000 L BNN
F 1 "24 1%" H 5200 4350 70  0000 L BNN
F 2 "SPARKFUN-PASSIVES_0603-RES" H 5090 4090 65  0001 L TNN
F 3 "" H 5100 4300 50  0001 C CNN
	1    5100 4300
	1    0    0    -1  
$EndComp
$Comp
L Rb-Multi-Reference-v10-rescue:SPARKFUN-PASSIVES_RESISTOR0603-RES-Rb-Multi-Reference-v10-Rb-Multi-Reference-v10-rescue R21
U 1 1 5E803723
P 5100 4400
F 0 "R21" H 4800 4300 70  0000 L BNN
F 1 "24 1%" H 5200 4300 70  0000 L BNN
F 2 "SPARKFUN-PASSIVES_0603-RES" H 5090 4190 65  0001 L TNN
F 3 "" H 5100 4400 50  0001 C CNN
	1    5100 4400
	1    0    0    -1  
$EndComp
$Comp
L Rb-Multi-Reference-v10-rescue:SPARKFUN-PASSIVES_RESISTOR0603-RES-Rb-Multi-Reference-v10-Rb-Multi-Reference-v10-rescue R22
U 1 1 5E8037EB
P 8650 4500
F 0 "R22" H 8500 4559 70  0000 L BNN
F 1 "24 1%" H 8500 4370 70  0000 L BNN
F 2 "SPARKFUN-PASSIVES_0603-RES" H 8640 4290 65  0001 L TNN
F 3 "" H 8650 4500 50  0001 C CNN
	1    8650 4500
	1    0    0    -1  
$EndComp
$Comp
L Rb-Multi-Reference-v10-rescue:SPARKFUN-PASSIVES_RESISTOR0603-RES-Rb-Multi-Reference-v10-Rb-Multi-Reference-v10-rescue R23
U 1 1 5E8038B3
P 9250 4700
F 0 "R23" H 9100 4759 70  0000 L BNN
F 1 "24 1%" H 9100 4570 70  0000 L BNN
F 2 "SPARKFUN-PASSIVES_0603-RES" H 9240 4490 65  0001 L TNN
F 3 "" H 9250 4700 50  0001 C CNN
	1    9250 4700
	1    0    0    -1  
$EndComp
Wire Wire Line
	4250 4200 4550 4200
Wire Wire Line
	4550 4200 4550 2900
Wire Wire Line
	6750 3800 6450 3800
Wire Wire Line
	6450 3800 6450 2900
Wire Wire Line
	6450 2900 5950 2900
Wire Wire Line
	5950 2900 5950 3000
Wire Wire Line
	4550 2900 5950 2900
Wire Wire Line
	4550 4200 4550 4600
Connection ~ 4550 4200
Text Label 5350 2900 0    65   ~ 0
+5VBUS
Wire Wire Line
	7950 3800 8350 3800
Wire Wire Line
	8350 3800 8350 2900
Wire Wire Line
	8350 2900 8950 2900
Wire Wire Line
	8950 2900 8950 3000
Wire Wire Line
	8950 2900 8950 2800
Connection ~ 8950 2900
Wire Wire Line
	9450 4700 10550 4700
Text Label 10550 4700 0    65   ~ 0
D+
Wire Wire Line
	8850 4500 10550 4500
Text Label 10550 4500 0    65   ~ 0
D-
Wire Wire Line
	7950 4500 8050 4500
Wire Wire Line
	8050 4500 8050 4700
Wire Wire Line
	8950 3300 8950 3400
Wire Wire Line
	8950 3400 8950 3500
Wire Wire Line
	7950 3900 8450 3900
Wire Wire Line
	8450 3900 8450 3400
Wire Wire Line
	8450 3400 8950 3400
Wire Wire Line
	8950 3400 9850 3400
Connection ~ 8950 3400
Wire Wire Line
	8950 3800 8950 3900
Wire Wire Line
	7950 4100 8950 4100
Wire Wire Line
	9250 3900 8950 3900
Connection ~ 8950 3900
Wire Wire Line
	6750 4100 5950 4100
Wire Wire Line
	5950 4100 5950 4000
Wire Wire Line
	6750 4000 5950 4000
Wire Wire Line
	6750 4200 5950 4200
Wire Wire Line
	5950 4200 5950 4100
Connection ~ 5950 4100
Wire Wire Line
	8450 4300 8450 4500
Wire Wire Line
	7950 4300 8450 4300
Wire Wire Line
	7950 4400 8350 4400
Wire Wire Line
	8350 4400 8350 4700
Wire Wire Line
	8350 4700 9050 4700
Wire Wire Line
	7950 4200 9050 4200
Wire Wire Line
	9050 4200 9050 4000
Wire Wire Line
	9050 4000 9250 4000
Wire Wire Line
	9050 4200 9050 4300
Wire Wire Line
	9050 4300 10550 4300
Connection ~ 9050 4200
Text Label 10550 4300 0    65   ~ 0
PIN
Wire Wire Line
	4250 4600 4350 4600
Wire Wire Line
	4350 4600 4350 5100
Wire Wire Line
	4350 5100 4350 5200
Wire Wire Line
	4550 4900 4550 5100
Wire Wire Line
	4550 5100 4350 5100
Connection ~ 4350 5100
Wire Wire Line
	6750 4500 6650 4500
Wire Wire Line
	6650 4500 6650 4700
Wire Wire Line
	5150 3600 5150 3400
Wire Wire Line
	5950 3500 5950 3400
Wire Wire Line
	5950 3400 5950 3300
Wire Wire Line
	5150 3400 5950 3400
Wire Wire Line
	6750 3900 6350 3900
Wire Wire Line
	6350 3900 6350 3400
Wire Wire Line
	6350 3400 5950 3400
Connection ~ 5950 3400
$Comp
L power:GND #PWR?
U 1 1 5FC09C65
P 4350 5200
F 0 "#PWR?" H 4350 4950 50  0001 C CNN
F 1 "GND" H 4355 5027 50  0000 C CNN
F 2 "" H 4350 5200 50  0001 C CNN
F 3 "" H 4350 5200 50  0001 C CNN
	1    4350 5200
	1    0    0    -1  
$EndComp
$Comp
L power:GND #PWR?
U 1 1 5FC0A303
P 6650 4700
F 0 "#PWR?" H 6650 4450 50  0001 C CNN
F 1 "GND" H 6655 4527 50  0000 C CNN
F 2 "" H 6650 4700 50  0001 C CNN
F 3 "" H 6650 4700 50  0001 C CNN
	1    6650 4700
	1    0    0    -1  
$EndComp
Wire Wire Line
	6750 4300 5300 4300
Wire Wire Line
	6750 4400 5300 4400
Wire Wire Line
	4900 4400 4250 4400
Wire Wire Line
	4250 4300 4900 4300
$Comp
L power:GND #PWR?
U 1 1 5FC10F14
P 5150 3600
F 0 "#PWR?" H 5150 3350 50  0001 C CNN
F 1 "GND" H 5155 3427 50  0000 C CNN
F 2 "" H 5150 3600 50  0001 C CNN
F 3 "" H 5150 3600 50  0001 C CNN
	1    5150 3600
	1    0    0    -1  
$EndComp
Connection ~ 5950 4000
Wire Wire Line
	5950 4000 5950 3800
Wire Wire Line
	8950 4100 8950 4000
Wire Wire Line
	8950 3900 8950 4000
Connection ~ 8950 4000
Wire Wire Line
	8950 4000 7950 4000
$Comp
L power:GND #PWR?
U 1 1 5FC119A2
P 8050 4700
F 0 "#PWR?" H 8050 4450 50  0001 C CNN
F 1 "GND" H 8055 4527 50  0000 C CNN
F 2 "" H 8050 4700 50  0001 C CNN
F 3 "" H 8050 4700 50  0001 C CNN
	1    8050 4700
	1    0    0    -1  
$EndComp
Wire Wire Line
	9850 3400 9850 3600
$Comp
L power:GND #PWR?
U 1 1 5FC122C9
P 9850 3600
F 0 "#PWR?" H 9850 3350 50  0001 C CNN
F 1 "GND" H 9855 3427 50  0000 C CNN
F 2 "" H 9850 3600 50  0001 C CNN
F 3 "" H 9850 3600 50  0001 C CNN
	1    9850 3600
	1    0    0    -1  
$EndComp
$Comp
L power:+3.3V #PWR?
U 1 1 5FC129F8
P 8950 2800
F 0 "#PWR?" H 8950 2650 50  0001 C CNN
F 1 "+3.3V" H 8965 2973 50  0000 C CNN
F 2 "" H 8950 2800 50  0001 C CNN
F 3 "" H 8950 2800 50  0001 C CNN
	1    8950 2800
	1    0    0    -1  
$EndComp
Connection ~ 5950 2900
$EndSCHEMATC
