EESchema Schematic File Version 4
LIBS:GNSSDO-Rb-Signal-Generator-cache
EELAYER 29 0
EELAYER END
$Descr USLegal 14000 8500
encoding utf-8
Sheet 3 8
Title "GNSSDO Rb Signal Generator"
Date "2020-11-25"
Rev "v0.2.0"
Comp "TechConficio Inc."
Comment1 ""
Comment2 ""
Comment3 "License : Creative Commons By 4.0 International"
Comment4 "Author : Steven Knudsen"
$EndDescr
$Comp
L CDCLVC1104PW:CDCLVC1104PW U301
U 1 1 5FC47D63
P 5050 3500
F 0 "U301" H 6250 3887 60  0000 C CNN
F 1 "CDCLVC1104PW" H 6250 3781 60  0000 C CNN
F 2 "PW8" H 6250 3740 60  0001 C CNN
F 3 "" H 5050 3500 60  0000 C CNN
	1    5050 3500
	1    0    0    -1  
$EndComp
$Comp
L dk_Coaxial-Connectors-RF:0734120114 J301
U 1 1 5FC4908C
P 10200 6000
F 0 "J301" H 10112 5975 60  0000 R CNN
F 1 "0734120114" H 10112 5869 60  0000 R CNN
F 2 "digikey-footprints:Molex_734120114_UMC_RF_CONN_Vertical" H 10400 6200 60  0001 L CNN
F 3 "https://www.molex.com/pdm_docs/sd/734120110_sd.pdf" H 10400 6300 60  0001 L CNN
F 4 "WM3894CT-ND" H 10400 6400 60  0001 L CNN "Digi-Key_PN"
F 5 "0734120114" H 10400 6500 60  0001 L CNN "MPN"
F 6 "Connectors, Interconnects" H 10400 6600 60  0001 L CNN "Category"
F 7 "Coaxial Connectors (RF)" H 10400 6700 60  0001 L CNN "Family"
F 8 "https://www.molex.com/pdm_docs/sd/734120110_sd.pdf" H 10400 6800 60  0001 L CNN "DK_Datasheet_Link"
F 9 "/product-detail/en/molex/0734120114/WM3894CT-ND/2421931" H 10400 6900 60  0001 L CNN "DK_Detail_Page"
F 10 "CONN UMC RCPT STR 50 OHM SMD" H 10400 7000 60  0001 L CNN "Description"
F 11 "Molex" H 10400 7100 60  0001 L CNN "Manufacturer"
F 12 "Active" H 10400 7200 60  0001 L CNN "Status"
F 13 "1" H 10200 6000 50  0001 C CNN "POPULATE"
	1    10200 6000
	-1   0    0    -1  
$EndComp
$Comp
L dk_Coaxial-Connectors-RF:0734120114 J303
U 1 1 5FC495EB
P 10200 4500
F 0 "J303" H 10112 4475 60  0000 R CNN
F 1 "0734120114" H 10112 4369 60  0000 R CNN
F 2 "digikey-footprints:Molex_734120114_UMC_RF_CONN_Vertical" H 10400 4700 60  0001 L CNN
F 3 "https://www.molex.com/pdm_docs/sd/734120110_sd.pdf" H 10400 4800 60  0001 L CNN
F 4 "WM3894CT-ND" H 10400 4900 60  0001 L CNN "Digi-Key_PN"
F 5 "0734120114" H 10400 5000 60  0001 L CNN "MPN"
F 6 "Connectors, Interconnects" H 10400 5100 60  0001 L CNN "Category"
F 7 "Coaxial Connectors (RF)" H 10400 5200 60  0001 L CNN "Family"
F 8 "https://www.molex.com/pdm_docs/sd/734120110_sd.pdf" H 10400 5300 60  0001 L CNN "DK_Datasheet_Link"
F 9 "/product-detail/en/molex/0734120114/WM3894CT-ND/2421931" H 10400 5400 60  0001 L CNN "DK_Detail_Page"
F 10 "CONN UMC RCPT STR 50 OHM SMD" H 10400 5500 60  0001 L CNN "Description"
F 11 "Molex" H 10400 5600 60  0001 L CNN "Manufacturer"
F 12 "Active" H 10400 5700 60  0001 L CNN "Status"
F 13 "1" H 10200 4500 50  0001 C CNN "POPULATE"
	1    10200 4500
	-1   0    0    -1  
$EndComp
$Comp
L dk_Coaxial-Connectors-RF:0734120114 J304
U 1 1 5FC49C7C
P 10200 3000
F 0 "J304" H 10112 2975 60  0000 R CNN
F 1 "0734120114" H 10112 2869 60  0000 R CNN
F 2 "digikey-footprints:Molex_734120114_UMC_RF_CONN_Vertical" H 10400 3200 60  0001 L CNN
F 3 "https://www.molex.com/pdm_docs/sd/734120110_sd.pdf" H 10400 3300 60  0001 L CNN
F 4 "WM3894CT-ND" H 10400 3400 60  0001 L CNN "Digi-Key_PN"
F 5 "0734120114" H 10400 3500 60  0001 L CNN "MPN"
F 6 "Connectors, Interconnects" H 10400 3600 60  0001 L CNN "Category"
F 7 "Coaxial Connectors (RF)" H 10400 3700 60  0001 L CNN "Family"
F 8 "https://www.molex.com/pdm_docs/sd/734120110_sd.pdf" H 10400 3800 60  0001 L CNN "DK_Datasheet_Link"
F 9 "/product-detail/en/molex/0734120114/WM3894CT-ND/2421931" H 10400 3900 60  0001 L CNN "DK_Detail_Page"
F 10 "CONN UMC RCPT STR 50 OHM SMD" H 10400 4000 60  0001 L CNN "Description"
F 11 "Molex" H 10400 4100 60  0001 L CNN "Manufacturer"
F 12 "Active" H 10400 4200 60  0001 L CNN "Status"
F 13 "1" H 10200 3000 50  0001 C CNN "POPULATE"
	1    10200 3000
	-1   0    0    -1  
$EndComp
$Comp
L dk_Coaxial-Connectors-RF:0734120114 J302
U 1 1 5FC4A43F
P 10200 1500
F 0 "J302" H 10112 1475 60  0000 R CNN
F 1 "0734120114" H 10112 1369 60  0000 R CNN
F 2 "digikey-footprints:Molex_734120114_UMC_RF_CONN_Vertical" H 10400 1700 60  0001 L CNN
F 3 "https://www.molex.com/pdm_docs/sd/734120110_sd.pdf" H 10400 1800 60  0001 L CNN
F 4 "WM3894CT-ND" H 10400 1900 60  0001 L CNN "Digi-Key_PN"
F 5 "0734120114" H 10400 2000 60  0001 L CNN "MPN"
F 6 "Connectors, Interconnects" H 10400 2100 60  0001 L CNN "Category"
F 7 "Coaxial Connectors (RF)" H 10400 2200 60  0001 L CNN "Family"
F 8 "https://www.molex.com/pdm_docs/sd/734120110_sd.pdf" H 10400 2300 60  0001 L CNN "DK_Datasheet_Link"
F 9 "/product-detail/en/molex/0734120114/WM3894CT-ND/2421931" H 10400 2400 60  0001 L CNN "DK_Detail_Page"
F 10 "CONN UMC RCPT STR 50 OHM SMD" H 10400 2500 60  0001 L CNN "Description"
F 11 "Molex" H 10400 2600 60  0001 L CNN "Manufacturer"
F 12 "Active" H 10400 2700 60  0001 L CNN "Status"
F 13 "1" H 10200 1500 50  0001 C CNN "POPULATE"
	1    10200 1500
	-1   0    0    -1  
$EndComp
$Comp
L Device:C_Small C301
U 1 1 5FC50D1C
P 2650 2150
F 0 "C301" V 2421 2150 50  0000 C CNN
F 1 "C_Small" V 2512 2150 50  0000 C CNN
F 2 "Capacitors_SMD:C_0603" H 2650 2150 50  0001 C CNN
F 3 "~" H 2650 2150 50  0001 C CNN
F 4 "1" H 2650 2150 50  0001 C CNN "POPULATE"
	1    2650 2150
	0    1    1    0   
$EndComp
$Comp
L Device:R_Small R301
U 1 1 5FC518EE
P 3350 1950
F 0 "R301" H 3409 1996 50  0000 L CNN
F 1 "NP" H 3409 1905 50  0000 L CNN
F 2 "" H 3350 1950 50  0001 C CNN
F 3 "~" H 3350 1950 50  0001 C CNN
F 4 "0" H 3350 1950 50  0001 C CNN "POPULATE"
	1    3350 1950
	1    0    0    -1  
$EndComp
$Comp
L Device:R_Small R302
U 1 1 5FC52328
P 3350 2350
F 0 "R302" H 3409 2396 50  0000 L CNN
F 1 "NP" H 3409 2305 50  0000 L CNN
F 2 "" H 3350 2350 50  0001 C CNN
F 3 "~" H 3350 2350 50  0001 C CNN
F 4 "0" H 3350 2350 50  0001 C CNN "POPULATE"
	1    3350 2350
	1    0    0    -1  
$EndComp
$Comp
L power:+3V3 #PWR0108
U 1 1 5FC53D6A
P 3350 1650
F 0 "#PWR0108" H 3350 1500 50  0001 C CNN
F 1 "+3V3" H 3365 1823 50  0000 C CNN
F 2 "" H 3350 1650 50  0001 C CNN
F 3 "" H 3350 1650 50  0001 C CNN
	1    3350 1650
	1    0    0    -1  
$EndComp
$Comp
L power:GND #PWR0109
U 1 1 5FC54923
P 3350 2650
F 0 "#PWR0109" H 3350 2400 50  0001 C CNN
F 1 "GND" H 3355 2477 50  0000 C CNN
F 2 "" H 3350 2650 50  0001 C CNN
F 3 "" H 3350 2650 50  0001 C CNN
	1    3350 2650
	1    0    0    -1  
$EndComp
Wire Wire Line
	3350 1850 3350 1650
Wire Wire Line
	3350 2250 3350 2150
Wire Wire Line
	3350 2450 3350 2650
Wire Wire Line
	2750 2150 3350 2150
Connection ~ 3350 2150
Wire Wire Line
	3350 2150 3350 2050
Wire Wire Line
	5050 3500 4950 3500
Wire Wire Line
	4950 3500 4950 2150
Wire Wire Line
	4950 2150 3350 2150
Wire Wire Line
	2550 2150 1500 2150
$Comp
L Device:R_Small R316
U 1 1 5FC55D9B
P 3900 3800
F 0 "R316" H 3959 3846 50  0000 L CNN
F 1 "1K" H 3959 3755 50  0000 L CNN
F 2 "Resistors_SMD:R_0603" H 3900 3800 50  0001 C CNN
F 3 "~" H 3900 3800 50  0001 C CNN
F 4 "0" H 3900 3800 50  0001 C CNN "POPULATE"
F 5 "1" H 3900 3800 50  0001 C CNN "MPN"
	1    3900 3800
	1    0    0    -1  
$EndComp
$Comp
L Device:R_Small R311
U 1 1 5FC5679A
P 3650 3600
F 0 "R311" V 3454 3600 50  0000 C CNN
F 1 "0R" V 3545 3600 50  0000 C CNN
F 2 "Resistors_SMD:R_0603" H 3650 3600 50  0001 C CNN
F 3 "~" H 3650 3600 50  0001 C CNN
F 4 "0" H 3650 3600 50  0001 C CNN "POPULATE"
F 5 "1" H 3650 3600 50  0001 C CNN "MPN"
	1    3650 3600
	0    1    1    0   
$EndComp
$Comp
L power:GND #PWR0110
U 1 1 5FC57BE8
P 3900 4000
F 0 "#PWR0110" H 3900 3750 50  0001 C CNN
F 1 "GND" H 3905 3827 50  0000 C CNN
F 2 "" H 3900 4000 50  0001 C CNN
F 3 "" H 3900 4000 50  0001 C CNN
	1    3900 4000
	1    0    0    -1  
$EndComp
$Comp
L Device:R_Small R312
U 1 1 5FC583AE
P 8900 6000
F 0 "R312" V 8704 6000 50  0000 C CNN
F 1 "0R" V 8795 6000 50  0000 C CNN
F 2 "Resistors_SMD:R_0603" H 8900 6000 50  0001 C CNN
F 3 "~" H 8900 6000 50  0001 C CNN
F 4 "0" H 8900 6000 50  0001 C CNN "POPULATE"
F 5 "1" H 8900 6000 50  0001 C CNN "MPN"
	1    8900 6000
	0    1    1    0   
$EndComp
Wire Wire Line
	3900 4000 3900 3900
Wire Wire Line
	3750 3600 3900 3600
Wire Wire Line
	3900 3700 3900 3600
Connection ~ 3900 3600
$Comp
L power:GND #PWR0111
U 1 1 5FC5CF57
P 4950 3900
F 0 "#PWR0111" H 4950 3650 50  0001 C CNN
F 1 "GND" H 4955 3727 50  0000 C CNN
F 2 "" H 4950 3900 50  0001 C CNN
F 3 "" H 4950 3900 50  0001 C CNN
	1    4950 3900
	1    0    0    -1  
$EndComp
Wire Wire Line
	4950 3900 4950 3800
Wire Wire Line
	4950 3800 5050 3800
$Comp
L Device:C_Small C302
U 1 1 5FC5FE70
P 9250 6000
F 0 "C302" V 9021 6000 50  0000 C CNN
F 1 "C_Small" V 9112 6000 50  0000 C CNN
F 2 "Capacitors_SMD:C_0603" H 9250 6000 50  0001 C CNN
F 3 "~" H 9250 6000 50  0001 C CNN
F 4 "1" H 9250 6000 50  0001 C CNN "POPULATE"
	1    9250 6000
	0    1    1    0   
$EndComp
$Comp
L Device:R_Small R303
U 1 1 5FC605C7
P 9500 5750
F 0 "R303" H 9559 5796 50  0000 L CNN
F 1 "NP" H 9559 5705 50  0000 L CNN
F 2 "Resistors_SMD:R_0603" H 9500 5750 50  0001 C CNN
F 3 "~" H 9500 5750 50  0001 C CNN
F 4 "0" H 9500 5750 50  0001 C CNN "POPULATE"
F 5 "0" H 9500 5750 50  0001 C CNN "MPN"
	1    9500 5750
	1    0    0    -1  
$EndComp
$Comp
L Device:R_Small R304
U 1 1 5FC61572
P 9500 6250
F 0 "R304" H 9559 6296 50  0000 L CNN
F 1 "NP" H 9559 6205 50  0000 L CNN
F 2 "Resistors_SMD:R_0603" H 9500 6250 50  0001 C CNN
F 3 "~" H 9500 6250 50  0001 C CNN
F 4 "0" H 9500 6250 50  0001 C CNN "POPULATE"
F 5 "0" H 9500 6250 50  0001 C CNN "MPN"
	1    9500 6250
	1    0    0    -1  
$EndComp
$Comp
L power:GND #PWR0112
U 1 1 5FC61C9A
P 9500 6450
F 0 "#PWR0112" H 9500 6200 50  0001 C CNN
F 1 "GND" H 9505 6277 50  0000 C CNN
F 2 "" H 9500 6450 50  0001 C CNN
F 3 "" H 9500 6450 50  0001 C CNN
	1    9500 6450
	1    0    0    -1  
$EndComp
$Comp
L power:+3V3 #PWR0113
U 1 1 5FC620BE
P 9500 5550
F 0 "#PWR0113" H 9500 5400 50  0001 C CNN
F 1 "+3V3" H 9515 5723 50  0000 C CNN
F 2 "" H 9500 5550 50  0001 C CNN
F 3 "" H 9500 5550 50  0001 C CNN
	1    9500 5550
	1    0    0    -1  
$EndComp
Wire Wire Line
	9500 5650 9500 5550
Wire Wire Line
	9500 5850 9500 6000
Wire Wire Line
	9500 6350 9500 6450
Wire Wire Line
	9000 6000 9150 6000
Wire Wire Line
	9350 6000 9500 6000
Connection ~ 9500 6000
Wire Wire Line
	9500 6000 9500 6150
$Comp
L Device:R_Small R314
U 1 1 5FC6C1B1
P 8900 4500
F 0 "R314" V 8704 4500 50  0000 C CNN
F 1 "0R" V 8795 4500 50  0000 C CNN
F 2 "Resistors_SMD:R_0603" H 8900 4500 50  0001 C CNN
F 3 "~" H 8900 4500 50  0001 C CNN
F 4 "0" H 8900 4500 50  0001 C CNN "POPULATE"
F 5 "1" H 8900 4500 50  0001 C CNN "MPN"
	1    8900 4500
	0    1    1    0   
$EndComp
$Comp
L Device:C_Small C304
U 1 1 5FC6C1B7
P 9250 4500
F 0 "C304" V 9021 4500 50  0000 C CNN
F 1 "C_Small" V 9112 4500 50  0000 C CNN
F 2 "Capacitors_SMD:C_0603" H 9250 4500 50  0001 C CNN
F 3 "~" H 9250 4500 50  0001 C CNN
F 4 "1" H 9250 4500 50  0001 C CNN "POPULATE"
	1    9250 4500
	0    1    1    0   
$EndComp
$Comp
L Device:R_Small R307
U 1 1 5FC6C1BE
P 9500 4250
F 0 "R307" H 9559 4296 50  0000 L CNN
F 1 "NP" H 9559 4205 50  0000 L CNN
F 2 "Resistors_SMD:R_0603" H 9500 4250 50  0001 C CNN
F 3 "~" H 9500 4250 50  0001 C CNN
F 4 "0" H 9500 4250 50  0001 C CNN "POPULATE"
F 5 "0" H 9500 4250 50  0001 C CNN "MPN"
	1    9500 4250
	1    0    0    -1  
$EndComp
$Comp
L Device:R_Small R308
U 1 1 5FC6C1C5
P 9500 4750
F 0 "R308" H 9559 4796 50  0000 L CNN
F 1 "NP" H 9559 4705 50  0000 L CNN
F 2 "Resistors_SMD:R_0603" H 9500 4750 50  0001 C CNN
F 3 "~" H 9500 4750 50  0001 C CNN
F 4 "0" H 9500 4750 50  0001 C CNN "POPULATE"
F 5 "0" H 9500 4750 50  0001 C CNN "MPN"
	1    9500 4750
	1    0    0    -1  
$EndComp
$Comp
L power:GND #PWR0114
U 1 1 5FC6C1CB
P 9500 4950
F 0 "#PWR0114" H 9500 4700 50  0001 C CNN
F 1 "GND" H 9505 4777 50  0000 C CNN
F 2 "" H 9500 4950 50  0001 C CNN
F 3 "" H 9500 4950 50  0001 C CNN
	1    9500 4950
	1    0    0    -1  
$EndComp
$Comp
L power:+3V3 #PWR0115
U 1 1 5FC6C1D1
P 9500 4050
F 0 "#PWR0115" H 9500 3900 50  0001 C CNN
F 1 "+3V3" H 9515 4223 50  0000 C CNN
F 2 "" H 9500 4050 50  0001 C CNN
F 3 "" H 9500 4050 50  0001 C CNN
	1    9500 4050
	1    0    0    -1  
$EndComp
Wire Wire Line
	9500 4150 9500 4050
Wire Wire Line
	9500 4350 9500 4500
Wire Wire Line
	9500 4850 9500 4950
Wire Wire Line
	9000 4500 9150 4500
Wire Wire Line
	9350 4500 9500 4500
Connection ~ 9500 4500
Wire Wire Line
	9500 4500 9500 4650
$Comp
L Device:R_Small R315
U 1 1 5FC7B159
P 8900 3000
F 0 "R315" V 8704 3000 50  0000 C CNN
F 1 "0R" V 8795 3000 50  0000 C CNN
F 2 "Resistors_SMD:R_0603" H 8900 3000 50  0001 C CNN
F 3 "~" H 8900 3000 50  0001 C CNN
F 4 "0" H 8900 3000 50  0001 C CNN "POPULATE"
F 5 "1" H 8900 3000 50  0001 C CNN "MPN"
	1    8900 3000
	0    1    1    0   
$EndComp
$Comp
L Device:C_Small C305
U 1 1 5FC7B15F
P 9250 3000
F 0 "C305" V 9021 3000 50  0000 C CNN
F 1 "C_Small" V 9112 3000 50  0000 C CNN
F 2 "Capacitors_SMD:C_0603" H 9250 3000 50  0001 C CNN
F 3 "~" H 9250 3000 50  0001 C CNN
F 4 "1" H 9250 3000 50  0001 C CNN "POPULATE"
	1    9250 3000
	0    1    1    0   
$EndComp
$Comp
L Device:R_Small R309
U 1 1 5FC7B166
P 9500 2750
F 0 "R309" H 9559 2796 50  0000 L CNN
F 1 "NP" H 9559 2705 50  0000 L CNN
F 2 "Resistors_SMD:R_0603" H 9500 2750 50  0001 C CNN
F 3 "~" H 9500 2750 50  0001 C CNN
F 4 "0" H 9500 2750 50  0001 C CNN "POPULATE"
F 5 "0" H 9500 2750 50  0001 C CNN "MPN"
	1    9500 2750
	1    0    0    -1  
$EndComp
$Comp
L Device:R_Small R310
U 1 1 5FC7B16D
P 9500 3250
F 0 "R310" H 9559 3296 50  0000 L CNN
F 1 "NP" H 9559 3205 50  0000 L CNN
F 2 "Resistors_SMD:R_0603" H 9500 3250 50  0001 C CNN
F 3 "~" H 9500 3250 50  0001 C CNN
F 4 "0" H 9500 3250 50  0001 C CNN "POPULATE"
F 5 "0" H 9500 3250 50  0001 C CNN "MPN"
	1    9500 3250
	1    0    0    -1  
$EndComp
$Comp
L power:GND #PWR0116
U 1 1 5FC7B173
P 9500 3450
F 0 "#PWR0116" H 9500 3200 50  0001 C CNN
F 1 "GND" H 9505 3277 50  0000 C CNN
F 2 "" H 9500 3450 50  0001 C CNN
F 3 "" H 9500 3450 50  0001 C CNN
	1    9500 3450
	1    0    0    -1  
$EndComp
$Comp
L power:+3V3 #PWR0117
U 1 1 5FC7B179
P 9500 2550
F 0 "#PWR0117" H 9500 2400 50  0001 C CNN
F 1 "+3V3" H 9515 2723 50  0000 C CNN
F 2 "" H 9500 2550 50  0001 C CNN
F 3 "" H 9500 2550 50  0001 C CNN
	1    9500 2550
	1    0    0    -1  
$EndComp
Wire Wire Line
	9500 2650 9500 2550
Wire Wire Line
	9500 2850 9500 3000
Wire Wire Line
	9500 3350 9500 3450
Wire Wire Line
	9000 3000 9150 3000
Wire Wire Line
	9350 3000 9500 3000
Connection ~ 9500 3000
Wire Wire Line
	9500 3000 9500 3150
$Comp
L Device:R_Small R313
U 1 1 5FC80D07
P 8900 1500
F 0 "R313" V 8704 1500 50  0000 C CNN
F 1 "0R" V 8795 1500 50  0000 C CNN
F 2 "Resistors_SMD:R_0603" H 8900 1500 50  0001 C CNN
F 3 "~" H 8900 1500 50  0001 C CNN
F 4 "0" H 8900 1500 50  0001 C CNN "POPULATE"
F 5 "1" H 8900 1500 50  0001 C CNN "MPN"
	1    8900 1500
	0    1    1    0   
$EndComp
$Comp
L Device:C_Small C303
U 1 1 5FC80D0D
P 9250 1500
F 0 "C303" V 9021 1500 50  0000 C CNN
F 1 "C_Small" V 9112 1500 50  0000 C CNN
F 2 "Capacitors_SMD:C_0603" H 9250 1500 50  0001 C CNN
F 3 "~" H 9250 1500 50  0001 C CNN
F 4 "1" H 9250 1500 50  0001 C CNN "POPULATE"
	1    9250 1500
	0    1    1    0   
$EndComp
$Comp
L Device:R_Small R305
U 1 1 5FC80D14
P 9500 1250
F 0 "R305" H 9559 1296 50  0000 L CNN
F 1 "NP" H 9559 1205 50  0000 L CNN
F 2 "Resistors_SMD:R_0603" H 9500 1250 50  0001 C CNN
F 3 "~" H 9500 1250 50  0001 C CNN
F 4 "0" H 9500 1250 50  0001 C CNN "POPULATE"
F 5 "0" H 9500 1250 50  0001 C CNN "MPN"
	1    9500 1250
	1    0    0    -1  
$EndComp
$Comp
L Device:R_Small R306
U 1 1 5FC80D1B
P 9500 1750
F 0 "R306" H 9559 1796 50  0000 L CNN
F 1 "NP" H 9559 1705 50  0000 L CNN
F 2 "Resistors_SMD:R_0603" H 9500 1750 50  0001 C CNN
F 3 "~" H 9500 1750 50  0001 C CNN
F 4 "0" H 9500 1750 50  0001 C CNN "POPULATE"
F 5 "0" H 9500 1750 50  0001 C CNN "MPN"
	1    9500 1750
	1    0    0    -1  
$EndComp
$Comp
L power:GND #PWR0118
U 1 1 5FC80D21
P 9500 1950
F 0 "#PWR0118" H 9500 1700 50  0001 C CNN
F 1 "GND" H 9505 1777 50  0000 C CNN
F 2 "" H 9500 1950 50  0001 C CNN
F 3 "" H 9500 1950 50  0001 C CNN
	1    9500 1950
	1    0    0    -1  
$EndComp
$Comp
L power:+3V3 #PWR0119
U 1 1 5FC80D27
P 9500 1050
F 0 "#PWR0119" H 9500 900 50  0001 C CNN
F 1 "+3V3" H 9515 1223 50  0000 C CNN
F 2 "" H 9500 1050 50  0001 C CNN
F 3 "" H 9500 1050 50  0001 C CNN
	1    9500 1050
	1    0    0    -1  
$EndComp
Wire Wire Line
	9500 1150 9500 1050
Wire Wire Line
	9500 1350 9500 1500
Wire Wire Line
	9500 1850 9500 1950
Wire Wire Line
	9000 1500 9150 1500
Wire Wire Line
	9350 1500 9500 1500
Connection ~ 9500 1500
Wire Wire Line
	9500 1500 9500 1650
$Comp
L power:GND #PWR0120
U 1 1 5FC8271E
P 10200 1800
F 0 "#PWR0120" H 10200 1550 50  0001 C CNN
F 1 "GND" H 10205 1627 50  0000 C CNN
F 2 "" H 10200 1800 50  0001 C CNN
F 3 "" H 10200 1800 50  0001 C CNN
	1    10200 1800
	1    0    0    -1  
$EndComp
$Comp
L power:GND #PWR0121
U 1 1 5FC82CC9
P 10200 3300
F 0 "#PWR0121" H 10200 3050 50  0001 C CNN
F 1 "GND" H 10205 3127 50  0000 C CNN
F 2 "" H 10200 3300 50  0001 C CNN
F 3 "" H 10200 3300 50  0001 C CNN
	1    10200 3300
	1    0    0    -1  
$EndComp
$Comp
L power:GND #PWR0122
U 1 1 5FC82F99
P 10200 4800
F 0 "#PWR0122" H 10200 4550 50  0001 C CNN
F 1 "GND" H 10205 4627 50  0000 C CNN
F 2 "" H 10200 4800 50  0001 C CNN
F 3 "" H 10200 4800 50  0001 C CNN
	1    10200 4800
	1    0    0    -1  
$EndComp
$Comp
L power:GND #PWR0123
U 1 1 5FC83335
P 10200 6300
F 0 "#PWR0123" H 10200 6050 50  0001 C CNN
F 1 "GND" H 10205 6127 50  0000 C CNN
F 2 "" H 10200 6300 50  0001 C CNN
F 3 "" H 10200 6300 50  0001 C CNN
	1    10200 6300
	1    0    0    -1  
$EndComp
Wire Wire Line
	10200 6300 10200 6200
Wire Wire Line
	9500 6000 10000 6000
Wire Wire Line
	10200 4800 10200 4700
Wire Wire Line
	10000 4500 9500 4500
Wire Wire Line
	10200 1800 10200 1700
Wire Wire Line
	10000 1500 9500 1500
Wire Wire Line
	10200 3300 10200 3200
Wire Wire Line
	10000 3000 9500 3000
Wire Wire Line
	5050 3700 4850 3700
Wire Wire Line
	4850 3700 4850 6000
Wire Wire Line
	4850 6000 8800 6000
Wire Wire Line
	7450 3800 8500 3800
Wire Wire Line
	8500 3800 8500 4500
Wire Wire Line
	8500 4500 8800 4500
Wire Wire Line
	7450 3600 8500 3600
Wire Wire Line
	8500 3600 8500 3000
Wire Wire Line
	8500 3000 8800 3000
Wire Wire Line
	7450 3500 8400 3500
Wire Wire Line
	8400 3500 8400 1500
Wire Wire Line
	8400 1500 8800 1500
$Comp
L Device:C_Small C306
U 1 1 5FC8DA10
P 5500 2350
F 0 "C306" H 5592 2396 50  0000 L CNN
F 1 "10u" H 5592 2305 50  0000 L CNN
F 2 "Capacitors_SMD:C_0603" H 5500 2350 50  0001 C CNN
F 3 "~" H 5500 2350 50  0001 C CNN
F 4 "1" H 5500 2350 50  0001 C CNN "POPULATE"
	1    5500 2350
	1    0    0    -1  
$EndComp
$Comp
L Device:Ferrite_Bead_Small FB301
U 1 1 5FC8F242
P 5950 2150
F 0 "FB301" V 5713 2150 50  0000 C CNN
F 1 "2k5" V 5804 2150 50  0000 C CNN
F 2 "Resistors_SMD:R_0603" V 5880 2150 50  0001 C CNN
F 3 "~" H 5950 2150 50  0001 C CNN
F 4 "1" H 5950 2150 50  0001 C CNN "POPULATE"
F 5 "BLM18BD252BH1D" H 5950 2150 50  0001 C CNN "MPN"
	1    5950 2150
	0    1    1    0   
$EndComp
$Comp
L power:GND #PWR0124
U 1 1 5FC9337E
P 5500 2550
F 0 "#PWR0124" H 5500 2300 50  0001 C CNN
F 1 "GND" H 5505 2377 50  0000 C CNN
F 2 "" H 5500 2550 50  0001 C CNN
F 3 "" H 5500 2550 50  0001 C CNN
	1    5500 2550
	1    0    0    -1  
$EndComp
$Comp
L power:+3V3 #PWR0125
U 1 1 5FC9435C
P 5500 1850
F 0 "#PWR0125" H 5500 1700 50  0001 C CNN
F 1 "+3V3" H 5515 2023 50  0000 C CNN
F 2 "" H 5500 1850 50  0001 C CNN
F 3 "" H 5500 1850 50  0001 C CNN
	1    5500 1850
	1    0    0    -1  
$EndComp
Wire Wire Line
	5500 2550 5500 2450
Wire Wire Line
	5500 1850 5500 2150
Wire Wire Line
	5850 2150 5500 2150
Connection ~ 5500 2150
Wire Wire Line
	5500 2150 5500 2250
Wire Wire Line
	6850 2550 6850 2450
Wire Wire Line
	6350 2550 6350 2450
Connection ~ 6350 2150
Wire Wire Line
	6850 2150 6350 2150
Wire Wire Line
	6850 2250 6850 2150
Wire Wire Line
	6350 2150 6350 2250
Wire Wire Line
	6050 2150 6350 2150
$Comp
L power:GND #PWR0126
U 1 1 5FC93F38
P 6850 2550
F 0 "#PWR0126" H 6850 2300 50  0001 C CNN
F 1 "GND" H 6855 2377 50  0000 C CNN
F 2 "" H 6850 2550 50  0001 C CNN
F 3 "" H 6850 2550 50  0001 C CNN
	1    6850 2550
	1    0    0    -1  
$EndComp
$Comp
L power:GND #PWR0127
U 1 1 5FC93C13
P 6350 2550
F 0 "#PWR0127" H 6350 2300 50  0001 C CNN
F 1 "GND" H 6355 2377 50  0000 C CNN
F 2 "" H 6350 2550 50  0001 C CNN
F 3 "" H 6350 2550 50  0001 C CNN
	1    6350 2550
	1    0    0    -1  
$EndComp
$Comp
L Device:C_Small C308
U 1 1 5FC8E5C4
P 6850 2350
F 0 "C308" H 6942 2396 50  0000 L CNN
F 1 "0u1" H 6942 2305 50  0000 L CNN
F 2 "Capacitors_SMD:C_0402" H 6850 2350 50  0001 C CNN
F 3 "~" H 6850 2350 50  0001 C CNN
F 4 "1" H 6850 2350 50  0001 C CNN "POPULATE"
	1    6850 2350
	1    0    0    -1  
$EndComp
$Comp
L Device:C_Small C307
U 1 1 5FC8DF74
P 6350 2350
F 0 "C307" H 6442 2396 50  0000 L CNN
F 1 "1u" H 6442 2305 50  0000 L CNN
F 2 "Capacitors_SMD:C_0402" H 6350 2350 50  0001 C CNN
F 3 "~" H 6350 2350 50  0001 C CNN
F 4 "1" H 6350 2350 50  0001 C CNN "POPULATE"
	1    6350 2350
	1    0    0    -1  
$EndComp
Wire Notes Line
	6250 1750 6250 2500
Wire Notes Line
	6250 2500 7250 2500
Wire Notes Line
	7250 2500 7250 1750
Wire Notes Line
	7250 1750 6250 1750
Text Notes 6450 2000 0    50   ~ 0
keep close\nto chip
Text GLabel 1500 3600 0    50   Input ~ 0
CDCLVC_EN
Text GLabel 1500 2150 0    50   Input ~ 0
CDCLVC1104_CLKIN
Wire Wire Line
	1500 3600 3550 3600
Wire Wire Line
	3900 3600 5050 3600
Wire Wire Line
	7450 3700 7550 3700
Wire Wire Line
	7550 3700 7550 2150
Wire Wire Line
	7550 2150 6850 2150
Connection ~ 6850 2150
$EndSCHEMATC
