(kicad_sch (version 20230121) (generator eeschema)

  (uuid 8c741141-3312-4ef4-8b8a-640ed6d9c3ba)

  (paper "A4")

  (title_block
    (title "GNSSDO Rb Signal Generator")
    (date "2020-11-25")
    (rev "v0.2.0")
    (company "TechConficio Inc.")
    (comment 3 "License : Creative Commons By 4.0 International")
    (comment 4 "Author : Steven Knudsen")
  )

  (lib_symbols
  )

)
