EESchema Schematic File Version 4
LIBS:GNSSDO-Rb-Signal-Generator-cache
EELAYER 29 0
EELAYER END
$Descr USLegal 14000 8500
encoding utf-8
Sheet 2 8
Title "GNSSDO Rb Signal Generator"
Date "2020-11-25"
Rev "v0.2.0"
Comp "TechConficio Inc."
Comment1 ""
Comment2 ""
Comment3 "License : Creative Commons By 4.0 International"
Comment4 "Author : Steven Knudsen"
$EndDescr
$Comp
L CDC3RL02BYFPR:CDC3RL02BYFPR U201
U 1 1 5FC0A764
P 6350 3000
F 0 "U201" H 6350 3788 60  0000 C CNN
F 1 "CDC3RL02BYFPR" H 6350 3682 60  0000 C CNN
F 2 "GNSSDO-Rb-Signal-Generator-footprints:CDC3RL02BYFPR" H 6350 2940 60  0001 C CNN
F 3 "" H 6350 3000 60  0000 C CNN
F 4 "CDC3RL02BYFPR" H 6350 3000 50  0001 C CNN "MPN"
F 5 "1" H 6350 3000 50  0001 C CNN "POPULATE"
	1    6350 3000
	1    0    0    -1  
$EndComp
$Comp
L power:+3.3V #PWR0101
U 1 1 5FC0BC2B
P 5350 1850
F 0 "#PWR0101" H 5350 1700 50  0001 C CNN
F 1 "+3.3V" H 5365 2023 50  0000 C CNN
F 2 "" H 5350 1850 50  0001 C CNN
F 3 "" H 5350 1850 50  0001 C CNN
	1    5350 1850
	1    0    0    -1  
$EndComp
$Comp
L Device:R_Small R201
U 1 1 5FC0E10F
P 4500 3200
F 0 "R201" H 4559 3246 50  0000 L CNN
F 1 "50" H 4559 3155 50  0000 L CNN
F 2 "Resistors_SMD:R_0603" H 4500 3200 50  0001 C CNN
F 3 "~" H 4500 3200 50  0001 C CNN
F 4 "1" H 4500 3200 50  0001 C CNN "POPULATE"
	1    4500 3200
	1    0    0    -1  
$EndComp
$Comp
L Device:C_Small C201
U 1 1 5FC0EAE1
P 5150 2600
F 0 "C201" V 4921 2600 50  0000 C CNN
F 1 "1u" V 5012 2600 50  0000 C CNN
F 2 "Capacitors_SMD:C_0603" H 5150 2600 50  0001 C CNN
F 3 "~" H 5150 2600 50  0001 C CNN
F 4 "1" H 5150 2600 50  0001 C CNN "POPULATE"
	1    5150 2600
	0    1    1    0   
$EndComp
$Comp
L Device:C_Small C205
U 1 1 5FC10BFA
P 7950 3300
F 0 "C205" H 8042 3346 50  0000 L CNN
F 1 "2p" H 8042 3255 50  0000 L CNN
F 2 "Capacitors_SMD:C_0603" H 7950 3300 50  0001 C CNN
F 3 "~" H 7950 3300 50  0001 C CNN
F 4 "1" H 7950 3300 50  0001 C CNN "POPULATE"
	1    7950 3300
	1    0    0    -1  
$EndComp
$Comp
L Device:C_Small C204
U 1 1 5FC1112C
P 7550 3300
F 0 "C204" H 7642 3346 50  0000 L CNN
F 1 "2p" H 7642 3255 50  0000 L CNN
F 2 "Capacitors_SMD:C_0603" H 7550 3300 50  0001 C CNN
F 3 "~" H 7550 3300 50  0001 C CNN
F 4 "1" H 7550 3300 50  0001 C CNN "POPULATE"
	1    7550 3300
	1    0    0    -1  
$EndComp
Wire Wire Line
	7250 2900 7350 2900
Wire Wire Line
	7350 2900 7350 2600
Wire Wire Line
	7350 2600 7250 2600
Wire Wire Line
	7250 3200 7350 3200
Wire Wire Line
	7350 3200 7350 2900
Connection ~ 7350 2900
Wire Wire Line
	7350 2600 7350 1850
Connection ~ 7350 2600
$Comp
L power:GND #PWR0102
U 1 1 5FC11E68
P 7350 3700
F 0 "#PWR0102" H 7350 3450 50  0001 C CNN
F 1 "GND" H 7355 3527 50  0000 C CNN
F 2 "" H 7350 3700 50  0001 C CNN
F 3 "" H 7350 3700 50  0001 C CNN
	1    7350 3700
	1    0    0    -1  
$EndComp
Wire Wire Line
	7250 3400 7350 3400
Wire Wire Line
	7250 3100 7550 3100
Wire Wire Line
	7550 3100 7550 3200
Wire Wire Line
	7250 2800 7950 2800
Wire Wire Line
	7950 2800 7950 3200
Wire Wire Line
	7350 3400 7350 3700
$Comp
L power:GND #PWR0103
U 1 1 5FC1512E
P 7550 3700
F 0 "#PWR0103" H 7550 3450 50  0001 C CNN
F 1 "GND" H 7555 3527 50  0000 C CNN
F 2 "" H 7550 3700 50  0001 C CNN
F 3 "" H 7550 3700 50  0001 C CNN
	1    7550 3700
	1    0    0    -1  
$EndComp
$Comp
L power:GND #PWR0104
U 1 1 5FC15530
P 7950 3700
F 0 "#PWR0104" H 7950 3450 50  0001 C CNN
F 1 "GND" H 7955 3527 50  0000 C CNN
F 2 "" H 7950 3700 50  0001 C CNN
F 3 "" H 7950 3700 50  0001 C CNN
	1    7950 3700
	1    0    0    -1  
$EndComp
Wire Wire Line
	7550 3400 7550 3700
Wire Wire Line
	7950 3400 7950 3700
Wire Wire Line
	7550 3100 9000 3100
Connection ~ 7550 3100
Wire Wire Line
	7950 2800 9000 2800
Connection ~ 7950 2800
Wire Wire Line
	5450 2600 5350 2600
Wire Wire Line
	5350 1850 5350 2600
Connection ~ 5350 2600
Wire Wire Line
	5350 2600 5250 2600
$Comp
L power:GND #PWR0105
U 1 1 5FC18549
P 4950 2650
F 0 "#PWR0105" H 4950 2400 50  0001 C CNN
F 1 "GND" H 4955 2477 50  0000 C CNN
F 2 "" H 4950 2650 50  0001 C CNN
F 3 "" H 4950 2650 50  0001 C CNN
	1    4950 2650
	1    0    0    -1  
$EndComp
Wire Wire Line
	5050 2600 4950 2600
Wire Wire Line
	4950 2600 4950 2650
Wire Wire Line
	5450 3000 4500 3000
Wire Wire Line
	4500 3100 4500 3000
Connection ~ 4500 3000
Wire Wire Line
	4500 3000 3750 3000
Connection ~ 4500 4350
Wire Wire Line
	4500 3300 4500 3400
Wire Wire Line
	4150 4350 4150 4250
Connection ~ 4150 4350
Wire Wire Line
	4500 4350 4150 4350
Wire Wire Line
	4500 4450 4500 4350
Wire Wire Line
	4150 4750 4150 4850
Connection ~ 4150 4750
Wire Wire Line
	4500 4750 4150 4750
Wire Wire Line
	4500 4650 4500 4750
Wire Wire Line
	4150 4650 4150 4750
Wire Wire Line
	4150 4450 4150 4350
$Comp
L Device:R_Small R203
U 1 1 5FC1070E
P 4150 4550
F 0 "R203" H 4209 4596 50  0000 L CNN
F 1 "10k" H 4209 4505 50  0000 L CNN
F 2 "Resistors_SMD:R_0603" H 4150 4550 50  0001 C CNN
F 3 "~" H 4150 4550 50  0001 C CNN
F 4 "1" H 4150 4550 50  0001 C CNN "POPULATE"
	1    4150 4550
	1    0    0    -1  
$EndComp
$Comp
L Device:R_Small R202
U 1 1 5FC101C9
P 4150 4150
F 0 "R202" H 4209 4196 50  0000 L CNN
F 1 "10k" H 4209 4105 50  0000 L CNN
F 2 "Resistors_SMD:R_0603" H 4150 4150 50  0001 C CNN
F 3 "~" H 4150 4150 50  0001 C CNN
F 4 "1" H 4150 4150 50  0001 C CNN "POPULATE"
	1    4150 4150
	1    0    0    -1  
$EndComp
$Comp
L Device:C_Small C203
U 1 1 5FC0F273
P 4500 4550
F 0 "C203" H 4592 4596 50  0000 L CNN
F 1 "2u2" H 4592 4505 50  0000 L CNN
F 2 "Capacitors_SMD:C_0603" H 4500 4550 50  0001 C CNN
F 3 "~" H 4500 4550 50  0001 C CNN
F 4 "1" H 4500 4550 50  0001 C CNN "POPULATE"
	1    4500 4550
	1    0    0    -1  
$EndComp
$Comp
L Device:C_Small C202
U 1 1 5FC0D89D
P 3750 4350
F 0 "C202" H 3842 4396 50  0000 L CNN
F 1 "2u2" H 3842 4305 50  0000 L CNN
F 2 "Capacitors_SMD:C_0603" H 3750 4350 50  0001 C CNN
F 3 "~" H 3750 4350 50  0001 C CNN
F 4 "1" H 3750 4350 50  0001 C CNN "POPULATE"
	1    3750 4350
	1    0    0    -1  
$EndComp
$Comp
L power:GND #PWR0106
U 1 1 5FC0BAC1
P 4150 4850
F 0 "#PWR0106" H 4150 4600 50  0001 C CNN
F 1 "GND" H 4155 4677 50  0000 C CNN
F 2 "" H 4150 4850 50  0001 C CNN
F 3 "" H 4150 4850 50  0001 C CNN
	1    4150 4850
	1    0    0    -1  
$EndComp
$Comp
L PULSE_CX2156NL:PULSE_CX2156NL T201
U 1 1 5FC0FFA6
P 3550 3200
F 0 "T201" H 3500 3500 45  0000 C CNN
F 1 "CX2156NL" H 3550 2900 45  0000 C CNN
F 2 "PULSE_CX2XXXNL" H 3530 3350 20  0001 C CNN
F 3 "" H 3500 3200 50  0001 C CNN
F 4 "CX2156NL" H 3550 3200 50  0001 C CNN "MPN"
F 5 "1" H 3550 3200 50  0001 C CNN "POPULATE"
	1    3550 3200
	1    0    0    -1  
$EndComp
Wire Wire Line
	3750 3400 4500 3400
Connection ~ 4500 3400
Wire Wire Line
	4500 3400 4500 4350
$Comp
L power:GND #PWR0107
U 1 1 5FC271BB
P 3200 3500
F 0 "#PWR0107" H 3200 3250 50  0001 C CNN
F 1 "GND" H 3205 3327 50  0000 C CNN
F 2 "" H 3200 3500 50  0001 C CNN
F 3 "" H 3200 3500 50  0001 C CNN
	1    3200 3500
	1    0    0    -1  
$EndComp
Wire Wire Line
	3300 3400 3200 3400
Wire Wire Line
	3200 3400 3200 3500
Wire Wire Line
	3300 3000 2500 3000
Wire Wire Line
	4150 4050 4150 3950
Wire Wire Line
	4150 3950 3750 3950
Wire Wire Line
	3750 3950 3750 4250
Wire Wire Line
	3750 4450 3750 4750
Wire Wire Line
	3750 4750 4150 4750
Wire Wire Line
	4150 3950 4150 3750
Connection ~ 4150 3950
Text Label 7350 1850 0    50   ~ 0
VLDO
Text Label 4150 3750 0    50   ~ 0
VLDO
Text GLabel 2500 3000 0    50   Input ~ 0
FE-5680A-10MHZ
Text GLabel 9000 2800 2    50   Input ~ 0
CDCLVC1104_CLKIN
Text GLabel 9000 3100 2    50   Input ~ 0
SI5338A_IN
$EndSCHEMATC
