(kicad_sch (version 20230121) (generator eeschema)

  (uuid 751f5796-35fb-47f7-9ac2-b2e6c08d2f6e)

  (paper "A4")

  (title_block
    (title "GNSSDO Rb Signal Generator")
    (date "2020-11-25")
    (rev "v0.2.0")
    (company "TechConficio Inc.")
    (comment 3 "License : Creative Commons By 4.0 International")
    (comment 4 "Author : Steven Knudsen")
  )

  (lib_symbols
  )

)
